shop_number,date,visitors
4882168,31/12/2014,138
4882168,31/12/2013,131
4882168,31/12/2011,149
4882168,31/12/2007,127
4882168,31/10/2014,129
4882168,31/10/2013,110
4882168,31/10/2011,107
4882168,31/10/2007,124
4882168,31/08/2014,117
4882168,31/08/2013,99
4882168,31/08/2011,113
4882168,31/08/2007,130
4882168,31/07/2014,124
4882168,31/07/2013,99
4882168,31/07/2011,99
4882168,31/07/2007,152
4882168,31/05/2014,128
4882168,31/05/2013,165
4882168,31/05/2011,100
4882168,31/05/2007,149
4882168,31/03/2014,116
4882168,31/03/2013,121
4882168,31/03/2011,119
4882168,31/03/2007,142
4882168,31/01/2014,122
4882168,31/01/2013,156
4882168,31/01/2011,128
4882168,31/01/2007,149
4882168,30/12/2014,141
4882168,30/12/2013,133
4882168,30/12/2011,153
4882168,30/12/2007,125
4882168,30/11/2014,113
4882168,30/11/2013,133
4882168,30/11/2011,100
4882168,30/11/2007,141
4882168,30/10/2014,131
4882168,30/10/2013,112
4882168,30/10/2011,108
4882168,30/10/2007,123
4882168,30/09/2014,103
4882168,30/09/2013,100
4882168,30/09/2011,100
4882168,30/09/2007,192
4882168,30/08/2014,115
4882168,30/08/2013,99
4882168,30/08/2011,115
4882168,30/08/2007,131
4882168,30/07/2014,135
4882168,30/07/2013,98
4882168,30/07/2011,99
4882168,30/07/2007,162
4882168,30/06/2014,115
4882168,30/06/2013,106
4882168,30/06/2011,124
4882168,30/06/2007,145
4882168,30/05/2014,132
4882168,30/05/2013,169
4882168,30/05/2011,100
4882168,30/05/2007,159
4882168,30/04/2014,123
4882168,30/04/2013,125
4882168,30/04/2011,104
4882168,30/04/2007,102
4882168,30/03/2014,117
4882168,30/03/2013,122
4882168,30/03/2011,119
4882168,30/03/2007,144
4882168,30/01/2014,123
4882168,30/01/2013,158
4882168,30/01/2011,129
4882168,30/01/2007,148
4882168,29/12/2014,144
4882168,29/12/2013,136
4882168,29/12/2011,157
4882168,29/12/2007,125
4882168,29/11/2014,114
4882168,29/11/2013,124
4882168,29/11/2011,101
4882168,29/11/2007,141
4882168,29/10/2014,131
4882168,29/10/2013,117
4882168,29/10/2011,109
4882168,29/10/2007,121
4882168,29/09/2014,106
4882168,29/09/2013,100
4882168,29/09/2011,101
4882168,29/09/2007,193
4882168,29/08/2014,115
4882168,29/08/2013,99
4882168,29/08/2011,117
4882168,29/08/2007,133
4882168,29/07/2014,112
4882168,29/07/2013,99
4882168,29/07/2011,98
4882168,29/07/2007,160
4882168,29/06/2014,112
4882168,29/06/2013,102
4882168,29/06/2011,100
4882168,29/06/2007,144
4882168,29/05/2014,140
4882168,29/05/2013,174
4882168,29/05/2011,100
4882168,29/05/2007,154
4882168,29/04/2014,127
4882168,29/04/2013,127
4882168,29/04/2011,106
4882168,29/04/2007,102
4882168,29/03/2014,118
4882168,29/03/2013,123
4882168,29/03/2011,117
4882168,29/03/2007,147
4882168,29/01/2014,124
4882168,29/01/2013,125
4882168,29/01/2011,131
4882168,29/01/2007,148
4882168,28/12/2014,148
4882168,28/12/2013,127
4882168,28/12/2011,164
4882168,28/12/2007,125
4882168,28/11/2014,114
4882168,28/11/2013,122
4882168,28/11/2011,101
4882168,28/11/2007,142
4882168,28/10/2014,134
4882168,28/10/2013,113
4882168,28/10/2011,110
4882168,28/10/2007,120
4882168,28/09/2014,108
4882168,28/09/2013,100
4882168,28/09/2011,101
4882168,28/09/2007,108
4882168,28/08/2014,118
4882168,28/08/2013,99
4882168,28/08/2011,123
4882168,28/08/2007,135
4882168,28/07/2014,99
4882168,28/07/2013,98
4882168,28/07/2011,99
4882168,28/07/2007,135
4882168,28/06/2014,101
4882168,28/06/2013,101
4882168,28/06/2011,101
4882168,28/06/2007,146
4882168,28/05/2014,141
4882168,28/05/2013,178
4882168,28/05/2011,100
4882168,28/05/2007,147
4882168,28/04/2014,138
4882168,28/04/2013,131
4882168,28/04/2011,102
4882168,28/04/2007,102
4882168,28/03/2014,119
4882168,28/03/2013,123
4882168,28/03/2011,117
4882168,28/03/2007,150
4882168,28/02/2014,128
4882168,28/02/2013,119
4882168,28/02/2011,123
4882168,28/02/2007,156
4882168,28/01/2014,125
4882168,28/01/2013,122
4882168,28/01/2011,133
4882168,28/01/2007,137
4882168,27/12/2014,154
4882168,27/12/2013,128
4882168,27/12/2011,171
4882168,27/12/2007,125
4882168,27/11/2014,115
4882168,27/11/2013,123
4882168,27/11/2011,101
4882168,27/11/2007,144
4882168,27/10/2014,136
4882168,27/10/2013,111
4882168,27/10/2011,112
4882168,27/10/2007,122
4882168,27/09/2014,108
4882168,27/09/2013,100
4882168,27/09/2011,102
4882168,27/09/2007,104
4882168,27/08/2014,124
4882168,27/08/2013,100
4882168,27/08/2011,119
4882168,27/08/2007,138
4882168,27/07/2014,99
4882168,27/07/2013,99
4882168,27/07/2011,99
4882168,27/07/2007,123
4882168,27/06/2014,101
4882168,27/06/2013,102
4882168,27/06/2011,109
4882168,27/06/2007,151
4882168,27/05/2014,115
4882168,27/05/2013,208
4882168,27/05/2011,100
4882168,27/05/2007,150
4882168,27/04/2014,119
4882168,27/04/2013,132
4882168,27/04/2011,101
4882168,27/04/2007,102
4882168,27/03/2014,120
4882168,27/03/2013,121
4882168,27/03/2011,118
4882168,27/03/2007,152
4882168,27/02/2014,127
4882168,27/02/2013,119
4882168,27/02/2011,124
4882168,27/02/2007,152
4882168,27/01/2014,126
4882168,27/01/2013,123
4882168,27/01/2011,135
4882168,27/01/2007,139
4882168,26/12/2014,161
4882168,26/12/2013,130
4882168,26/12/2011,169
4882168,26/12/2007,127
4882168,26/11/2014,115
4882168,26/11/2013,125
4882168,26/11/2011,101
4882168,26/11/2007,147
4882168,26/10/2014,140
4882168,26/10/2013,110
4882168,26/10/2011,115
4882168,26/10/2007,122
4882168,26/09/2014,106
4882168,26/09/2013,101
4882168,26/09/2011,102
4882168,26/09/2007,104
4882168,26/08/2014,122
4882168,26/08/2013,100
4882168,26/08/2011,108
4882168,26/08/2007,143
4882168,26/07/2014,99
4882168,26/07/2013,99
4882168,26/07/2011,99
4882168,26/07/2007,125
4882168,26/06/2014,103
4882168,26/06/2013,103
4882168,26/06/2011,117
4882168,26/06/2007,151
4882168,26/05/2014,114
4882168,26/05/2013,185
4882168,26/05/2011,100
4882168,26/05/2007,132
4882168,26/04/2014,109
4882168,26/04/2013,127
4882168,26/04/2011,100
4882168,26/04/2007,102
4882168,26/03/2014,121
4882168,26/03/2013,121
4882168,26/03/2011,120
4882168,26/03/2007,153
4882168,26/02/2014,128
4882168,26/02/2013,120
4882168,26/02/2011,124
4882168,26/02/2007,148
4882168,26/01/2014,126
4882168,26/01/2013,122
4882168,26/01/2011,138
4882168,26/01/2007,141
4882168,25/12/2014,173
4882168,25/12/2013,130
4882168,25/12/2011,169
4882168,25/12/2007,128
4882168,25/11/2014,116
4882168,25/11/2013,126
4882168,25/11/2011,101
4882168,25/11/2007,147
4882168,25/10/2014,146
4882168,25/10/2013,107
4882168,25/10/2011,117
4882168,25/10/2007,122
4882168,25/09/2014,107
4882168,25/09/2013,101
4882168,25/09/2011,103
4882168,25/09/2007,104
4882168,25/08/2014,108
4882168,25/08/2013,100
4882168,25/08/2011,113
4882168,25/08/2007,149
4882168,25/07/2014,100
4882168,25/07/2013,99
4882168,25/07/2011,100
4882168,25/07/2007,127
4882168,25/06/2014,104
4882168,25/06/2013,103
4882168,25/06/2011,119
4882168,25/06/2007,152
4882168,25/05/2014,118
4882168,25/05/2013,138
4882168,25/05/2011,100
4882168,25/05/2007,123
4882168,25/04/2014,110
4882168,25/04/2013,127
4882168,25/04/2011,101
4882168,25/04/2007,103
4882168,25/03/2014,122
4882168,25/03/2013,120
4882168,25/03/2011,120
4882168,25/03/2007,149
4882168,25/02/2014,128
4882168,25/02/2013,121
4882168,25/02/2011,125
4882168,25/02/2007,141
4882168,25/01/2014,126
4882168,25/01/2013,123
4882168,25/01/2011,140
4882168,25/01/2007,144
4882168,24/12/2014,178
4882168,24/12/2013,129
4882168,24/12/2011,173
4882168,24/12/2007,129
4882168,24/11/2014,116
4882168,24/11/2013,128
4882168,24/11/2011,101
4882168,24/11/2007,150
4882168,24/10/2014,154
4882168,24/10/2013,108
4882168,24/10/2011,119
4882168,24/10/2007,123
4882168,24/09/2014,111
4882168,24/09/2013,102
4882168,24/09/2011,105
4882168,24/09/2007,104
4882168,24/08/2014,109
4882168,24/08/2013,100
4882168,24/08/2011,112
4882168,24/08/2007,157
4882168,24/07/2014,99
4882168,24/07/2013,98
4882168,24/07/2011,99
4882168,24/07/2007,129
4882168,24/06/2014,100
4882168,24/06/2013,103
4882168,24/06/2011,119
4882168,24/06/2007,157
4882168,24/05/2014,119
4882168,24/05/2013,143
4882168,24/05/2011,100
4882168,24/05/2007,125
4882168,24/04/2014,108
4882168,24/04/2013,129
4882168,24/04/2011,101
4882168,24/04/2007,103
4882168,24/03/2014,123
4882168,24/03/2013,117
4882168,24/03/2011,120
4882168,24/03/2007,150
4882168,24/02/2014,129
4882168,24/02/2013,121
4882168,24/02/2011,128
4882168,24/02/2007,137
4882168,24/01/2014,128
4882168,24/01/2013,125
4882168,24/01/2011,140
4882168,24/01/2007,148
4882168,23/12/2014,196
4882168,23/12/2013,130
4882168,23/12/2011,163
4882168,23/12/2007,129
4882168,23/11/2014,117
4882168,23/11/2013,126
4882168,23/11/2011,101
4882168,23/11/2007,150
4882168,23/10/2014,174
4882168,23/10/2013,111
4882168,23/10/2011,120
4882168,23/10/2007,123
4882168,23/09/2014,117
4882168,23/09/2013,105
4882168,23/09/2011,107
4882168,23/09/2007,104
4882168,23/08/2014,110
4882168,23/08/2013,100
4882168,23/08/2011,115
4882168,23/08/2007,170
4882168,23/07/2014,99
4882168,23/07/2013,98
4882168,23/07/2011,99
4882168,23/07/2007,132
4882168,23/06/2014,100
4882168,23/06/2013,104
4882168,23/06/2011,117
4882168,23/06/2007,152
4882168,23/05/2014,122
4882168,23/05/2013,140
4882168,23/05/2011,101
4882168,23/05/2007,128
4882168,23/04/2014,110
4882168,23/04/2013,130
4882168,23/04/2011,101
4882168,23/04/2007,103
4882168,23/03/2014,124
4882168,23/03/2013,122
4882168,23/03/2011,119
4882168,23/03/2007,153
4882168,23/02/2014,130
4882168,23/02/2013,121
4882168,23/02/2011,129
4882168,23/02/2007,139
4882168,23/01/2014,128
4882168,23/01/2013,126
4882168,23/01/2011,143
4882168,23/01/2007,152
4882168,22/12/2014,166
4882168,22/12/2013,127
4882168,22/12/2011,142
4882168,22/12/2007,130
4882168,22/11/2014,117
4882168,22/11/2013,127
4882168,22/11/2011,101
4882168,22/11/2007,146
4882168,22/10/2014,159
4882168,22/10/2013,114
4882168,22/10/2011,121
4882168,22/10/2007,124
4882168,22/09/2014,115
4882168,22/09/2013,111
4882168,22/09/2011,108
4882168,22/09/2007,104
4882168,22/08/2014,112
4882168,22/08/2013,100
4882168,22/08/2011,117
4882168,22/08/2007,207
4882168,22/07/2014,100
4882168,22/07/2013,98
4882168,22/07/2011,99
4882168,22/07/2007,142
4882168,22/06/2014,101
4882168,22/06/2013,106
4882168,22/06/2011,100
4882168,22/06/2007,151
4882168,22/05/2014,121
4882168,22/05/2013,140
4882168,22/05/2011,101
4882168,22/05/2007,129
4882168,22/04/2014,113
4882168,22/04/2013,132
4882168,22/04/2011,101
4882168,22/04/2007,103
4882168,22/03/2014,124
4882168,22/03/2013,123
4882168,22/03/2011,120
4882168,22/03/2007,129
4882168,22/02/2014,134
4882168,22/02/2013,122
4882168,22/02/2011,130
4882168,22/02/2007,143
4882168,22/01/2014,129
4882168,22/01/2013,127
4882168,22/01/2011,146
4882168,22/01/2007,158
4882168,21/12/2014,160
4882168,21/12/2013,128
4882168,21/12/2011,139
4882168,21/12/2007,131
4882168,21/11/2014,118
4882168,21/11/2013,128
4882168,21/11/2011,101
4882168,21/11/2007,144
4882168,21/10/2014,120
4882168,21/10/2013,117
4882168,21/10/2011,122
4882168,21/10/2007,125
4882168,21/09/2014,109
4882168,21/09/2013,116
4882168,21/09/2011,111
4882168,21/09/2007,105
4882168,21/08/2014,115
4882168,21/08/2013,100
4882168,21/08/2011,121
4882168,21/08/2007,172
4882168,21/07/2014,100
4882168,21/07/2013,99
4882168,21/07/2011,100
4882168,21/07/2007,128
4882168,21/06/2014,101
4882168,21/06/2013,110
4882168,21/06/2011,99
4882168,21/06/2007,140
4882168,21/05/2014,123
4882168,21/05/2013,126
4882168,21/05/2011,103
4882168,21/05/2007,132
4882168,21/04/2014,115
4882168,21/04/2013,135
4882168,21/04/2011,101
4882168,21/04/2007,103
4882168,21/03/2014,125
4882168,21/03/2013,125
4882168,21/03/2011,121
4882168,21/03/2007,126
4882168,21/02/2014,133
4882168,21/02/2013,123
4882168,21/02/2011,129
4882168,21/02/2007,140
4882168,21/01/2014,130
4882168,21/01/2013,128
4882168,21/01/2011,150
4882168,21/01/2007,164
4882168,20/12/2014,176
4882168,20/12/2013,131
4882168,20/12/2011,139
4882168,20/12/2007,132
4882168,20/11/2014,118
4882168,20/11/2013,129
4882168,20/11/2011,101
4882168,20/11/2007,144
4882168,20/10/2014,119
4882168,20/10/2013,120
4882168,20/10/2011,124
4882168,20/10/2007,126
4882168,20/09/2014,110
4882168,20/09/2013,116
4882168,20/09/2011,114
4882168,20/09/2007,105
4882168,20/08/2014,119
4882168,20/08/2013,101
4882168,20/08/2011,126
4882168,20/08/2007,129
4882168,20/07/2014,100
4882168,20/07/2013,99
4882168,20/07/2011,99
4882168,20/07/2007,128
4882168,20/06/2014,101
4882168,20/06/2013,107
4882168,20/06/2011,100
4882168,20/06/2007,136
4882168,20/05/2014,126
4882168,20/05/2013,129
4882168,20/05/2011,110
4882168,20/05/2007,135
4882168,20/04/2014,117
4882168,20/04/2013,137
4882168,20/04/2011,102
4882168,20/04/2007,103
4882168,20/03/2014,130
4882168,20/03/2013,126
4882168,20/03/2011,122
4882168,20/03/2007,127
4882168,20/02/2014,131
4882168,20/02/2013,124
4882168,20/02/2011,132
4882168,20/02/2007,143
4882168,20/01/2014,131
4882168,20/01/2013,129
4882168,20/01/2011,156
4882168,20/01/2007,171
4882168,19/12/2014,182
4882168,19/12/2013,130
4882168,19/12/2011,142
4882168,19/12/2007,134
4882168,19/11/2014,119
4882168,19/11/2013,126
4882168,19/11/2011,102
4882168,19/11/2007,146
4882168,19/10/2014,113
4882168,19/10/2013,122
4882168,19/10/2011,125
4882168,19/10/2007,129
4882168,19/09/2014,106
4882168,19/09/2013,122
4882168,19/09/2011,117
4882168,19/09/2007,106
4882168,19/08/2014,116
4882168,19/08/2013,102
4882168,19/08/2011,128
4882168,19/08/2007,130
4882168,19/07/2014,100
4882168,19/07/2013,99
4882168,19/07/2011,99
4882168,19/07/2007,129
4882168,19/06/2014,101
4882168,19/06/2013,109
4882168,19/06/2011,99
4882168,19/06/2007,141
4882168,19/05/2014,129
4882168,19/05/2013,132
4882168,19/05/2011,105
4882168,19/05/2007,138
4882168,19/04/2014,121
4882168,19/04/2013,141
4882168,19/04/2011,104
4882168,19/04/2007,103
4882168,19/03/2014,129
4882168,19/03/2013,126
4882168,19/03/2011,124
4882168,19/03/2007,129
4882168,19/02/2014,131
4882168,19/02/2013,125
4882168,19/02/2011,134
4882168,19/02/2007,146
4882168,19/01/2014,133
4882168,19/01/2013,131
4882168,19/01/2011,163
4882168,19/01/2007,188
4882168,18/12/2014,141
4882168,18/12/2013,131
4882168,18/12/2011,145
4882168,18/12/2007,136
4882168,18/11/2014,120
4882168,18/11/2013,127
4882168,18/11/2011,102
4882168,18/11/2007,148
4882168,18/10/2014,115
4882168,18/10/2013,125
4882168,18/10/2011,127
4882168,18/10/2007,126
4882168,18/09/2014,102
4882168,18/09/2013,122
4882168,18/09/2011,119
4882168,18/09/2007,110
4882168,18/08/2014,118
4882168,18/08/2013,100
4882168,18/08/2011,107
4882168,18/08/2007,133
4882168,18/07/2014,100
4882168,18/07/2013,99
4882168,18/07/2011,99
4882168,18/07/2007,132
4882168,18/06/2014,103
4882168,18/06/2013,111
4882168,18/06/2011,99
4882168,18/06/2007,146
4882168,18/05/2014,131
4882168,18/05/2013,137
4882168,18/05/2011,105
4882168,18/05/2007,140
4882168,18/04/2014,117
4882168,18/04/2013,146
4882168,18/04/2011,107
4882168,18/04/2007,103
4882168,18/03/2014,125
4882168,18/03/2013,127
4882168,18/03/2011,127
4882168,18/03/2007,131
4882168,18/02/2014,132
4882168,18/02/2013,125
4882168,18/02/2011,136
4882168,18/02/2007,150
4882168,18/01/2014,135
4882168,18/01/2013,132
4882168,18/01/2011,164
4882168,18/01/2007,169
4882168,17/12/2014,127
4882168,17/12/2013,134
4882168,17/12/2011,149
4882168,17/12/2007,138
4882168,17/11/2014,122
4882168,17/11/2013,129
4882168,17/11/2011,102
4882168,17/11/2007,148
4882168,17/10/2014,114
4882168,17/10/2013,125
4882168,17/10/2011,129
4882168,17/10/2007,124
4882168,17/09/2014,102
4882168,17/09/2013,124
4882168,17/09/2011,120
4882168,17/09/2007,115
4882168,17/08/2014,119
4882168,17/08/2013,100
4882168,17/08/2011,113
4882168,17/08/2007,136
4882168,17/07/2014,100
4882168,17/07/2013,99
4882168,17/07/2011,100
4882168,17/07/2007,133
4882168,17/06/2014,105
4882168,17/06/2013,115
4882168,17/06/2011,99
4882168,17/06/2007,138
4882168,17/05/2014,133
4882168,17/05/2013,113
4882168,17/05/2011,106
4882168,17/05/2007,145
4882168,17/04/2014,116
4882168,17/04/2013,152
4882168,17/04/2011,109
4882168,17/04/2007,104
4882168,17/03/2014,130
4882168,17/03/2013,126
4882168,17/03/2011,129
4882168,17/03/2007,129
4882168,17/02/2014,134
4882168,17/02/2013,126
4882168,17/02/2011,138
4882168,17/02/2007,155
4882168,17/01/2014,138
4882168,17/01/2013,133
4882168,17/01/2011,171
4882168,17/01/2007,142
4882168,16/12/2014,126
4882168,16/12/2013,136
4882168,16/12/2011,145
4882168,16/12/2007,140
4882168,16/11/2014,121
4882168,16/11/2013,131
4882168,16/11/2011,102
4882168,16/11/2007,151
4882168,16/10/2014,113
4882168,16/10/2013,128
4882168,16/10/2011,132
4882168,16/10/2007,125
4882168,16/09/2014,103
4882168,16/09/2013,121
4882168,16/09/2011,122
4882168,16/09/2007,123
4882168,16/08/2014,121
4882168,16/08/2013,100
4882168,16/08/2011,120
4882168,16/08/2007,140
4882168,16/07/2014,101
4882168,16/07/2013,99
4882168,16/07/2011,100
4882168,16/07/2007,136
4882168,16/06/2014,107
4882168,16/06/2013,119
4882168,16/06/2011,99
4882168,16/06/2007,149
4882168,16/05/2014,135
4882168,16/05/2013,114
4882168,16/05/2011,101
4882168,16/05/2007,146
4882168,16/04/2014,117
4882168,16/04/2013,159
4882168,16/04/2011,111
4882168,16/04/2007,104
4882168,16/03/2014,124
4882168,16/03/2013,127
4882168,16/03/2011,130
4882168,16/03/2007,130
4882168,16/02/2014,135
4882168,16/02/2013,127
4882168,16/02/2011,139
4882168,16/02/2007,161
4882168,16/01/2014,136
4882168,16/01/2013,136
4882168,16/01/2011,186
4882168,16/01/2007,144
4882168,15/12/2014,127
4882168,15/12/2013,138
4882168,15/12/2011,144
4882168,15/12/2007,143
4882168,15/11/2014,120
4882168,15/11/2013,133
4882168,15/11/2011,102
4882168,15/11/2007,157
4882168,15/10/2014,113
4882168,15/10/2013,123
4882168,15/10/2011,135
4882168,15/10/2007,125
4882168,15/09/2014,105
4882168,15/09/2013,111
4882168,15/09/2011,123
4882168,15/09/2007,130
4882168,15/08/2014,123
4882168,15/08/2013,100
4882168,15/08/2011,126
4882168,15/08/2007,135
4882168,15/07/2014,102
4882168,15/07/2013,99
4882168,15/07/2011,100
4882168,15/07/2007,140
4882168,15/06/2014,109
4882168,15/06/2013,119
4882168,15/06/2011,99
4882168,15/06/2007,143
4882168,15/05/2014,138
4882168,15/05/2013,115
4882168,15/05/2011,101
4882168,15/05/2007,151
4882168,15/04/2014,117
4882168,15/04/2013,159
4882168,15/04/2011,109
4882168,15/04/2007,105
4882168,15/03/2014,116
4882168,15/03/2013,128
4882168,15/03/2011,128
4882168,15/03/2007,131
4882168,15/02/2014,130
4882168,15/02/2013,128
4882168,15/02/2011,141
4882168,15/02/2007,169
4882168,15/01/2014,136
4882168,15/01/2013,138
4882168,15/01/2011,218
4882168,15/01/2007,147
4882168,14/12/2014,131
4882168,14/12/2013,142
4882168,14/12/2011,147
4882168,14/12/2007,146
4882168,14/11/2014,120
4882168,14/11/2013,135
4882168,14/11/2011,102
4882168,14/11/2007,163
4882168,14/10/2014,114
4882168,14/10/2013,124
4882168,14/10/2011,140
4882168,14/10/2007,127
4882168,14/09/2014,105
4882168,14/09/2013,112
4882168,14/09/2011,126
4882168,14/09/2007,138
4882168,14/08/2014,125
4882168,14/08/2013,101
4882168,14/08/2011,119
4882168,14/08/2007,137
4882168,14/07/2014,103
4882168,14/07/2013,99
4882168,14/07/2011,101
4882168,14/07/2007,145
4882168,14/06/2014,111
4882168,14/06/2013,122
4882168,14/06/2011,99
4882168,14/06/2007,121
4882168,14/05/2014,140
4882168,14/05/2013,117
4882168,14/05/2011,100
4882168,14/05/2007,146
4882168,14/04/2014,110
4882168,14/04/2013,156
4882168,14/04/2011,110
4882168,14/04/2007,106
4882168,14/03/2014,114
4882168,14/03/2013,132
4882168,14/03/2011,127
4882168,14/03/2007,133
4882168,14/02/2014,130
4882168,14/02/2013,129
4882168,14/02/2011,142
4882168,14/02/2007,176
4882168,14/01/2014,137
4882168,14/01/2013,142
4882168,14/01/2011,228
4882168,14/01/2007,151
4882168,13/12/2014,143
4882168,13/12/2013,147
4882168,13/12/2011,141
4882168,13/12/2007,150
4882168,13/11/2014,121
4882168,13/11/2013,138
4882168,13/11/2011,102
4882168,13/11/2007,170
4882168,13/10/2014,117
4882168,13/10/2013,128
4882168,13/10/2011,147
4882168,13/10/2007,129
4882168,13/09/2014,106
4882168,13/09/2013,121
4882168,13/09/2011,129
4882168,13/09/2007,147
4882168,13/08/2014,113
4882168,13/08/2013,101
4882168,13/08/2011,121
4882168,13/08/2007,140
4882168,13/07/2014,106
4882168,13/07/2013,99
4882168,13/07/2011,101
4882168,13/07/2007,149
4882168,13/06/2014,115
4882168,13/06/2013,122
4882168,13/06/2011,99
4882168,13/06/2007,126
4882168,13/05/2014,140
4882168,13/05/2013,117
4882168,13/05/2011,100
4882168,13/05/2007,148
4882168,13/04/2014,108
4882168,13/04/2013,155
4882168,13/04/2011,114
4882168,13/04/2007,106
4882168,13/03/2014,115
4882168,13/03/2013,133
4882168,13/03/2011,122
4882168,13/03/2007,136
4882168,13/02/2014,127
4882168,13/02/2013,131
4882168,13/02/2011,145
4882168,13/02/2007,170
4882168,13/01/2014,139
4882168,13/01/2013,146
4882168,13/01/2011,173
4882168,13/01/2007,153
4882168,12/12/2014,119
4882168,12/12/2013,152
4882168,12/12/2011,135
4882168,12/12/2007,154
4882168,12/11/2014,122
4882168,12/11/2013,141
4882168,12/11/2011,102
4882168,12/11/2007,179
4882168,12/10/2014,118
4882168,12/10/2013,140
4882168,12/10/2011,163
4882168,12/10/2007,130
4882168,12/09/2014,108
4882168,12/09/2013,132
4882168,12/09/2011,134
4882168,12/09/2007,157
4882168,12/08/2014,113
4882168,12/08/2013,100
4882168,12/08/2011,107
4882168,12/08/2007,147
4882168,12/07/2014,113
4882168,12/07/2013,100
4882168,12/07/2011,100
4882168,12/07/2007,151
4882168,12/06/2014,122
4882168,12/06/2013,124
4882168,12/06/2011,99
4882168,12/06/2007,113
4882168,12/05/2014,139
4882168,12/05/2013,115
4882168,12/05/2011,100
4882168,12/05/2007,150
4882168,12/04/2014,112
4882168,12/04/2013,148
4882168,12/04/2011,114
4882168,12/04/2007,108
4882168,12/03/2014,116
4882168,12/03/2013,134
4882168,12/03/2011,122
4882168,12/03/2007,140
4882168,12/02/2014,126
4882168,12/02/2013,133
4882168,12/02/2011,149
4882168,12/02/2007,146
4882168,12/01/2014,141
4882168,12/01/2013,150
4882168,12/01/2011,156
4882168,12/01/2007,158
4882168,11/12/2014,113
4882168,11/12/2013,161
4882168,11/12/2011,135
4882168,11/12/2007,158
4882168,11/11/2014,122
4882168,11/11/2013,147
4882168,11/11/2011,102
4882168,11/11/2007,182
4882168,11/10/2014,122
4882168,11/10/2013,124
4882168,11/10/2011,155
4882168,11/10/2007,131
4882168,11/09/2014,111
4882168,11/09/2013,130
4882168,11/09/2011,132
4882168,11/09/2007,168
4882168,11/08/2014,116
4882168,11/08/2013,100
4882168,11/08/2011,112
4882168,11/08/2007,158
4882168,11/07/2014,129
4882168,11/07/2013,100
4882168,11/07/2011,101
4882168,11/07/2007,149
4882168,11/06/2014,120
4882168,11/06/2013,126
4882168,11/06/2011,99
4882168,11/06/2007,113
4882168,11/05/2014,141
4882168,11/05/2013,115
4882168,11/05/2011,100
4882168,11/05/2007,148
4882168,11/04/2014,116
4882168,11/04/2013,132
4882168,11/04/2011,115
4882168,11/04/2007,109
4882168,11/03/2014,118
4882168,11/03/2013,136
4882168,11/03/2011,121
4882168,11/03/2007,143
4882168,11/02/2014,127
4882168,11/02/2013,134
4882168,11/02/2011,149
4882168,11/02/2007,137
4882168,11/01/2014,142
4882168,11/01/2013,156
4882168,11/01/2011,164
4882168,11/01/2007,152
4882168,10/12/2014,113
4882168,10/12/2013,173
4882168,10/12/2011,140
4882168,10/12/2007,164
4882168,10/11/2014,121
4882168,10/11/2013,154
4882168,10/11/2011,102
4882168,10/11/2007,165
4882168,10/10/2014,129
4882168,10/10/2013,104
4882168,10/10/2011,123
4882168,10/10/2007,133
4882168,10/09/2014,107
4882168,10/09/2013,99
4882168,10/09/2011,136
4882168,10/09/2007,148
4882168,10/08/2014,119
4882168,10/08/2013,100
4882168,10/08/2011,123
4882168,10/08/2007,130
4882168,10/07/2014,124
4882168,10/07/2013,100
4882168,10/07/2011,102
4882168,10/07/2007,153
4882168,10/06/2014,112
4882168,10/06/2013,129
4882168,10/06/2011,99
4882168,10/06/2007,121
4882168,10/05/2014,133
4882168,10/05/2013,117
4882168,10/05/2011,101
4882168,10/05/2007,149
4882168,10/04/2014,112
4882168,10/04/2013,120
4882168,10/04/2011,116
4882168,10/04/2007,111
4882168,10/03/2014,119
4882168,10/03/2013,137
4882168,10/03/2011,119
4882168,10/03/2007,146
4882168,10/02/2014,127
4882168,10/02/2013,137
4882168,10/02/2011,141
4882168,10/02/2007,138
4882168,10/01/2014,143
4882168,10/01/2013,162
4882168,10/01/2011,179
4882168,10/01/2007,154
4882168,09/12/2014,114
4882168,09/12/2013,162
4882168,09/12/2011,143
4882168,09/12/2007,169
4882168,09/11/2014,120
4882168,09/11/2013,162
4882168,09/11/2011,102
4882168,09/11/2007,164
4882168,09/10/2014,125
4882168,09/10/2013,99
4882168,09/10/2011,109
4882168,09/10/2007,135
4882168,09/09/2014,106
4882168,09/09/2013,99
4882168,09/09/2011,147
4882168,09/09/2007,142
4882168,09/08/2014,119
4882168,09/08/2013,101
4882168,09/08/2011,107
4882168,09/08/2007,131
4882168,09/07/2014,111
4882168,09/07/2013,101
4882168,09/07/2011,104
4882168,09/07/2007,146
4882168,09/06/2014,113
4882168,09/06/2013,131
4882168,09/06/2011,99
4882168,09/06/2007,119
4882168,09/05/2014,130
4882168,09/05/2013,116
4882168,09/05/2011,101
4882168,09/05/2007,152
4882168,09/04/2014,103
4882168,09/04/2013,118
4882168,09/04/2011,116
4882168,09/04/2007,113
4882168,09/03/2014,120
4882168,09/03/2013,135
4882168,09/03/2011,118
4882168,09/03/2007,136
4882168,09/02/2014,129
4882168,09/02/2013,140
4882168,09/02/2011,144
4882168,09/02/2007,140
4882168,09/01/2014,138
4882168,09/01/2013,157
4882168,09/01/2011,195
4882168,09/01/2007,162
4882168,08/12/2014,114
4882168,08/12/2013,132
4882168,08/12/2011,129
4882168,08/12/2007,180
4882168,08/11/2014,121
4882168,08/11/2013,174
4882168,08/11/2011,103
4882168,08/11/2007,160
4882168,08/10/2014,114
4882168,08/10/2013,99
4882168,08/10/2011,101
4882168,08/10/2007,137
4882168,08/09/2014,107
4882168,08/09/2013,99
4882168,08/09/2011,131
4882168,08/09/2007,134
4882168,08/08/2014,121
4882168,08/08/2013,101
4882168,08/08/2011,99
4882168,08/08/2007,130
4882168,08/07/2014,100
4882168,08/07/2013,101
4882168,08/07/2011,110
4882168,08/07/2007,149
4882168,08/06/2014,116
4882168,08/06/2013,132
4882168,08/06/2011,99
4882168,08/06/2007,120
4882168,08/05/2014,113
4882168,08/05/2013,117
4882168,08/05/2011,101
4882168,08/05/2007,154
4882168,08/04/2014,102
4882168,08/04/2013,117
4882168,08/04/2011,118
4882168,08/04/2007,115
4882168,08/03/2014,120
4882168,08/03/2013,132
4882168,08/03/2011,117
4882168,08/03/2007,139
4882168,08/02/2014,126
4882168,08/02/2013,143
4882168,08/02/2011,147
4882168,08/02/2007,141
4882168,08/01/2014,140
4882168,08/01/2013,158
4882168,08/01/2011,170
4882168,08/01/2007,168
4882168,07/12/2014,110
4882168,07/12/2013,131
4882168,07/12/2011,120
4882168,07/12/2007,203
4882168,07/11/2014,121
4882168,07/11/2013,168
4882168,07/11/2011,103
4882168,07/11/2007,152
4882168,07/10/2014,101
4882168,07/10/2013,100
4882168,07/10/2011,100
4882168,07/10/2007,139
4882168,07/09/2014,109
4882168,07/09/2013,99
4882168,07/09/2011,117
4882168,07/09/2007,131
4882168,07/08/2014,125
4882168,07/08/2013,101
4882168,07/08/2011,98
4882168,07/08/2007,130
4882168,07/07/2014,100
4882168,07/07/2013,102
4882168,07/07/2011,117
4882168,07/07/2007,154
4882168,07/06/2014,120
4882168,07/06/2013,135
4882168,07/06/2011,99
4882168,07/06/2007,123
4882168,07/05/2014,115
4882168,07/05/2013,118
4882168,07/05/2011,101
4882168,07/05/2007,103
4882168,07/04/2014,103
4882168,07/04/2013,117
4882168,07/04/2011,120
4882168,07/04/2007,117
4882168,07/03/2014,121
4882168,07/03/2013,126
4882168,07/03/2011,117
4882168,07/03/2007,142
4882168,07/02/2014,123
4882168,07/02/2013,147
4882168,07/02/2011,152
4882168,07/02/2007,144
4882168,07/01/2014,142
4882168,07/01/2013,166
4882168,07/01/2011,163
4882168,07/01/2007,175
4882168,06/12/2014,109
4882168,06/12/2013,133
4882168,06/12/2011,120
4882168,06/12/2007,169
4882168,06/11/2014,122
4882168,06/11/2013,147
4882168,06/11/2011,103
4882168,06/11/2007,133
4882168,06/10/2014,101
4882168,06/10/2013,100
4882168,06/10/2011,100
4882168,06/10/2007,142
4882168,06/09/2014,110
4882168,06/09/2013,99
4882168,06/09/2011,105
4882168,06/09/2007,132
4882168,06/08/2014,132
4882168,06/08/2013,100
4882168,06/08/2011,98
4882168,06/08/2007,133
4882168,06/07/2014,100
4882168,06/07/2013,106
4882168,06/07/2011,122
4882168,06/07/2007,160
4882168,06/06/2014,124
4882168,06/06/2013,138
4882168,06/06/2011,99
4882168,06/06/2007,127
4882168,06/05/2014,115
4882168,06/05/2013,119
4882168,06/05/2011,102
4882168,06/05/2007,101
4882168,06/04/2014,104
4882168,06/04/2013,118
4882168,06/04/2011,121
4882168,06/04/2007,120
4882168,06/03/2014,121
4882168,06/03/2013,121
4882168,06/03/2011,119
4882168,06/03/2007,148
4882168,06/02/2014,121
4882168,06/02/2013,151
4882168,06/02/2011,156
4882168,06/02/2007,148
4882168,06/01/2014,131
4882168,06/01/2013,171
4882168,06/01/2011,127
4882168,06/01/2007,154
4882168,05/12/2014,109
4882168,05/12/2013,134
4882168,05/12/2011,123
4882168,05/12/2007,162
4882168,05/11/2014,123
4882168,05/11/2013,143
4882168,05/11/2011,104
4882168,05/11/2007,127
4882168,05/10/2014,101
4882168,05/10/2013,100
4882168,05/10/2011,100
4882168,05/10/2007,146
4882168,05/09/2014,114
4882168,05/09/2013,99
4882168,05/09/2011,105
4882168,05/09/2007,134
4882168,05/08/2014,137
4882168,05/08/2013,100
4882168,05/08/2011,98
4882168,05/08/2007,135
4882168,05/07/2014,100
4882168,05/07/2013,112
4882168,05/07/2011,127
4882168,05/07/2007,157
4882168,05/06/2014,128
4882168,05/06/2013,143
4882168,05/06/2011,99
4882168,05/06/2007,130
4882168,05/05/2014,116
4882168,05/05/2013,121
4882168,05/05/2011,102
4882168,05/05/2007,101
4882168,05/04/2014,106
4882168,05/04/2013,118
4882168,05/04/2011,125
4882168,05/04/2007,124
4882168,05/03/2014,123
4882168,05/03/2013,119
4882168,05/03/2011,120
4882168,05/03/2007,159
4882168,05/02/2014,122
4882168,05/02/2013,156
4882168,05/02/2011,137
4882168,05/02/2007,151
4882168,05/01/2014,131
4882168,05/01/2013,174
4882168,05/01/2011,125
4882168,05/01/2007,154
4882168,04/12/2014,111
4882168,04/12/2013,134
4882168,04/12/2011,127
4882168,04/12/2007,167
4882168,04/11/2014,124
4882168,04/11/2013,140
4882168,04/11/2011,105
4882168,04/11/2007,129
4882168,04/10/2014,102
4882168,04/10/2013,99
4882168,04/10/2011,100
4882168,04/10/2007,152
4882168,04/09/2014,118
4882168,04/09/2013,99
4882168,04/09/2011,102
4882168,04/09/2007,139
4882168,04/08/2014,120
4882168,04/08/2013,99
4882168,04/08/2011,98
4882168,04/08/2007,137
4882168,04/07/2014,101
4882168,04/07/2013,120
4882168,04/07/2011,136
4882168,04/07/2007,146
4882168,04/06/2014,121
4882168,04/06/2013,147
4882168,04/06/2011,99
4882168,04/06/2007,132
4882168,04/05/2014,118
4882168,04/05/2013,122
4882168,04/05/2011,102
4882168,04/05/2007,101
4882168,04/04/2014,107
4882168,04/04/2013,119
4882168,04/04/2011,125
4882168,04/04/2007,127
4882168,04/03/2014,124
4882168,04/03/2013,119
4882168,04/03/2011,120
4882168,04/03/2007,173
4882168,04/02/2014,121
4882168,04/02/2013,152
4882168,04/02/2011,126
4882168,04/02/2007,156
4882168,04/01/2014,131
4882168,04/01/2013,160
4882168,04/01/2011,126
4882168,04/01/2007,143
4882168,03/12/2014,113
4882168,03/12/2013,136
4882168,03/12/2011,100
4882168,03/12/2007,178
4882168,03/11/2014,124
4882168,03/11/2013,145
4882168,03/11/2011,106
4882168,03/11/2007,125
4882168,03/10/2014,102
4882168,03/10/2013,99
4882168,03/10/2011,100
4882168,03/10/2007,158
4882168,03/09/2014,123
4882168,03/09/2013,99
4882168,03/09/2011,104
4882168,03/09/2007,143
4882168,03/08/2014,120
4882168,03/08/2013,99
4882168,03/08/2011,99
4882168,03/08/2007,141
4882168,03/07/2014,101
4882168,03/07/2013,116
4882168,03/07/2011,142
4882168,03/07/2007,141
4882168,03/06/2014,122
4882168,03/06/2013,152
4882168,03/06/2011,99
4882168,03/06/2007,135
4882168,03/05/2014,120
4882168,03/05/2013,122
4882168,03/05/2011,102
4882168,03/05/2007,101
4882168,03/04/2014,109
4882168,03/04/2013,120
4882168,03/04/2011,120
4882168,03/04/2007,131
4882168,03/03/2014,125
4882168,03/03/2013,119
4882168,03/03/2011,120
4882168,03/03/2007,176
4882168,03/02/2014,122
4882168,03/02/2013,149
4882168,03/02/2011,127
4882168,03/02/2007,158
4882168,03/01/2014,130
4882168,03/01/2013,149
4882168,03/01/2011,127
4882168,03/01/2007,135
4882168,02/12/2014,113
4882168,02/12/2013,140
4882168,02/12/2011,100
4882168,02/12/2007,162
4882168,02/11/2014,125
4882168,02/11/2013,123
4882168,02/11/2011,106
4882168,02/11/2007,122
4882168,02/10/2014,102
4882168,02/10/2013,100
4882168,02/10/2011,100
4882168,02/10/2007,166
4882168,02/09/2014,123
4882168,02/09/2013,99
4882168,02/09/2011,108
4882168,02/09/2007,128
4882168,02/08/2014,103
4882168,02/08/2013,100
4882168,02/08/2011,99
4882168,02/08/2007,143
4882168,02/07/2014,104
4882168,02/07/2013,120
4882168,02/07/2011,114
4882168,02/07/2007,142
4882168,02/06/2014,124
4882168,02/06/2013,156
4882168,02/06/2011,99
4882168,02/06/2007,139
4882168,02/05/2014,122
4882168,02/05/2013,123
4882168,02/05/2011,102
4882168,02/05/2007,101
4882168,02/04/2014,112
4882168,02/04/2013,120
4882168,02/04/2011,122
4882168,02/04/2007,135
4882168,02/03/2014,126
4882168,02/03/2013,119
4882168,02/03/2011,121
4882168,02/03/2007,174
4882168,02/02/2014,122
4882168,02/02/2013,152
4882168,02/02/2011,127
4882168,02/02/2007,156
4882168,02/01/2014,130
4882168,02/01/2013,149
4882168,02/01/2011,127
4882168,02/01/2007,134
4882168,01/12/2014,113
4882168,01/12/2013,135
4882168,01/12/2011,100
4882168,01/12/2007,158
4882168,01/11/2014,127
4882168,01/11/2013,110
4882168,01/11/2011,107
4882168,01/11/2007,123
4882168,01/10/2014,103
4882168,01/10/2013,100
4882168,01/10/2011,100
4882168,01/10/2007,170
4882168,01/09/2014,117
4882168,01/09/2013,99
4882168,01/09/2011,111
4882168,01/09/2007,133
4882168,01/08/2014,110
4882168,01/08/2013,100
4882168,01/08/2011,99
4882168,01/08/2007,147
4882168,01/07/2014,109
4882168,01/07/2013,105
4882168,01/07/2011,121
4882168,01/07/2007,142
4882168,01/06/2014,126
4882168,01/06/2013,161
4882168,01/06/2011,99
4882168,01/06/2007,143
4882168,01/05/2014,122
4882168,01/05/2013,124
4882168,01/05/2011,103
4882168,01/05/2007,102
4882168,01/04/2014,115
4882168,01/04/2013,120
4882168,01/04/2011,126
4882168,01/04/2007,139
4882168,01/03/2014,127
4882168,01/03/2013,120
4882168,01/03/2011,122
4882168,01/03/2007,162
4882168,01/02/2014,122
4882168,01/02/2013,152
4882168,01/02/2011,127
4882168,01/02/2007,154
4882168,01/01/2014,130
4882168,01/01/2013,147
4882168,01/01/2011,128
4882168,01/01/2007,134
4882168,31/12/2017,158
4882168,30/12/2017,143
4882168,29/12/2017,144
4882168,28/12/2017,149
4882168,27/12/2017,155
4882168,26/12/2017,160
4882168,25/12/2017,167
4882168,24/12/2017,163
4882168,23/12/2017,152
4882168,22/12/2017,152
4882168,21/12/2017,149
4882168,20/12/2017,138
4882168,19/12/2017,137
4882168,18/12/2017,139
4882168,17/12/2017,142
4882168,16/12/2017,144
4882168,15/12/2017,147
4882168,14/12/2017,150
4882168,13/12/2017,149
4882168,12/12/2017,155
4882168,11/12/2017,150
4882168,10/12/2017,149
4882168,09/12/2017,153
4882168,08/12/2017,157
4882168,07/12/2017,156
4882168,06/12/2017,159
4882168,05/12/2017,155
4882168,04/12/2017,141
4882168,03/12/2017,140
4882168,02/12/2017,143
4882168,01/12/2017,147
4882168,30/11/2017,152
4882168,29/11/2017,157
4882168,28/11/2017,161
4882168,27/11/2017,155
4882168,26/11/2017,157
4882168,25/11/2017,162
4882168,24/11/2017,163
4882168,23/11/2017,174
4882168,22/11/2017,204
4882168,21/11/2017,183
4882168,20/11/2017,154
4882168,19/11/2017,140
4882168,18/11/2017,141
4882168,17/11/2017,143
4882168,16/11/2017,146
4882168,15/11/2017,148
4882168,14/11/2017,149
4882168,13/11/2017,152
4882168,12/11/2017,154
4882168,11/11/2017,152
4882168,10/11/2017,137
4882168,09/11/2017,135
4882168,08/11/2017,137
4882168,07/11/2017,139
4882168,06/11/2017,143
4882168,05/11/2017,143
4882168,04/11/2017,142
4882168,03/11/2017,145
4882168,02/11/2017,149
4882168,01/11/2017,153
4882168,31/10/2017,158
4882168,30/10/2017,168
4882168,29/10/2017,175
4882168,28/10/2017,142
4882168,27/10/2017,139
4882168,26/10/2017,140
4882168,25/10/2017,143
4882168,24/10/2017,148
4882168,23/10/2017,136
4882168,22/10/2017,128
4882168,21/10/2017,128
4882168,20/10/2017,129
4882168,19/10/2017,130
4882168,18/10/2017,132
4882168,17/10/2017,134
4882168,16/10/2017,137
4882168,15/10/2017,140
4882168,14/10/2017,144
4882168,13/10/2017,150
4882168,12/10/2017,156
4882168,11/10/2017,164
4882168,10/10/2017,167
4882168,09/10/2017,174
4882168,08/10/2017,190
4882168,07/10/2017,164
4882168,06/10/2017,166
4882168,05/10/2017,157
4882168,04/10/2017,140
4882168,03/10/2017,144
4882168,02/10/2017,129
4882168,01/10/2017,134
4882168,30/09/2017,124
4882168,29/09/2017,105
4882168,28/09/2017,108
4882168,27/09/2017,110
4882168,26/09/2017,114
4882168,25/09/2017,113
4882168,24/09/2017,109
4882168,23/09/2017,110
4882168,22/09/2017,113
4882168,21/09/2017,115
4882168,20/09/2017,116
4882168,19/09/2017,118
4882168,18/09/2017,120
4882168,17/09/2017,122
4882168,16/09/2017,127
4882168,15/09/2017,135
4882168,14/09/2017,121
4882168,13/09/2017,116
4882168,12/09/2017,105
4882168,11/09/2017,110
4882168,10/09/2017,121
4882168,09/09/2017,109
4882168,08/09/2017,111
4882168,07/09/2017,102
4882168,06/09/2017,100
4882168,05/09/2017,101
4882168,04/09/2017,101
4882168,03/09/2017,101
4882168,02/09/2017,103
4882168,01/09/2017,103
4882168,31/08/2017,102
4882168,30/08/2017,102
4882168,29/08/2017,103
4882168,28/08/2017,106
4882168,27/08/2017,109
4882168,26/08/2017,112
4882168,25/08/2017,115
4882168,24/08/2017,118
4882168,23/08/2017,120
4882168,22/08/2017,123
4882168,21/08/2017,126
4882168,20/08/2017,126
4882168,19/08/2017,137
4882168,18/08/2017,118
4882168,17/08/2017,109
4882168,16/08/2017,113
4882168,15/08/2017,115
4882168,14/08/2017,120
4882168,13/08/2017,125
4882168,12/08/2017,131
4882168,11/08/2017,119
4882168,10/08/2017,110
4882168,09/08/2017,111
4882168,08/08/2017,113
4882168,07/08/2017,117
4882168,06/08/2017,120
4882168,05/08/2017,121
4882168,04/08/2017,123
4882168,03/08/2017,126
4882168,02/08/2017,130
4882168,01/08/2017,134
4882168,31/07/2017,133
4882168,30/07/2017,139
4882168,29/07/2017,145
4882168,28/07/2017,157
4882168,27/07/2017,170
4882168,26/07/2017,199
4882168,25/07/2017,201
4882168,24/07/2017,126
4882168,23/07/2017,126
4882168,22/07/2017,110
4882168,21/07/2017,114
4882168,20/07/2017,122
4882168,19/07/2017,107
4882168,18/07/2017,111
4882168,17/07/2017,116
4882168,16/07/2017,119
4882168,15/07/2017,124
4882168,14/07/2017,124
4882168,13/07/2017,140
4882168,12/07/2017,108
4882168,11/07/2017,98
4882168,10/07/2017,99
4882168,09/07/2017,98
4882168,08/07/2017,98
4882168,07/07/2017,98
4882168,06/07/2017,99
4882168,05/07/2017,99
4882168,04/07/2017,103
4882168,03/07/2017,114
4882168,02/07/2017,119
4882168,01/07/2017,113
4882168,30/06/2017,116
4882168,29/06/2017,98
4882168,28/06/2017,98
4882168,27/06/2017,97
4882168,26/06/2017,98
4882168,25/06/2017,98
4882168,24/06/2017,97
4882168,23/06/2017,98
4882168,22/06/2017,98
4882168,21/06/2017,97
4882168,20/06/2017,97
4882168,19/06/2017,98
4882168,18/06/2017,98
4882168,17/06/2017,98
4882168,16/06/2017,98
4882168,15/06/2017,98
4882168,14/06/2017,98
4882168,13/06/2017,98
4882168,12/06/2017,98
4882168,11/06/2017,98
4882168,10/06/2017,98
4882168,09/06/2017,99
4882168,08/06/2017,99
4882168,07/06/2017,99
4882168,06/06/2017,99
4882168,05/06/2017,100
4882168,04/06/2017,100
4882168,03/06/2017,100
4882168,02/06/2017,99
4882168,01/06/2017,99
4882168,31/05/2017,99
4882168,30/05/2017,100
4882168,29/05/2017,99
4882168,28/05/2017,100
4882168,27/05/2017,100
4882168,26/05/2017,101
4882168,25/05/2017,102
4882168,24/05/2017,104
4882168,23/05/2017,104
4882168,22/05/2017,106
4882168,21/05/2017,109
4882168,20/05/2017,108
4882168,19/05/2017,100
4882168,18/05/2017,100
4882168,17/05/2017,100
4882168,16/05/2017,100
4882168,15/05/2017,101
4882168,14/05/2017,101
4882168,13/05/2017,101
4882168,12/05/2017,103
4882168,11/05/2017,103
4882168,10/05/2017,104
4882168,09/05/2017,106
4882168,08/05/2017,109
4882168,07/05/2017,110
4882168,06/05/2017,110
4882168,05/05/2017,111
4882168,04/05/2017,112
4882168,03/05/2017,114
4882168,02/05/2017,114
4882168,01/05/2017,114
4882168,30/04/2017,115
4882168,29/04/2017,116
4882168,28/04/2017,117
4882168,27/04/2017,118
4882168,26/04/2017,120
4882168,25/04/2017,120
4882168,24/04/2017,121
4882168,23/04/2017,122
4882168,22/04/2017,121
4882168,21/04/2017,119
4882168,20/04/2017,119
4882168,19/04/2017,120
4882168,18/04/2017,120
4882168,17/04/2017,120
4882168,16/04/2017,119
4882168,15/04/2017,119
4882168,14/04/2017,122
4882168,13/04/2017,123
4882168,12/04/2017,113
4882168,11/04/2017,112
4882168,10/04/2017,114
4882168,09/04/2017,117
4882168,08/04/2017,118
4882168,07/04/2017,118
4882168,06/04/2017,119
4882168,05/04/2017,119
4882168,04/04/2017,121
4882168,03/04/2017,122
4882168,02/04/2017,124
4882168,01/04/2017,124
4882168,31/03/2017,125
4882168,30/03/2017,128
4882168,29/03/2017,130
4882168,28/03/2017,131
4882168,27/03/2017,132
4882168,26/03/2017,134
4882168,25/03/2017,136
4882168,24/03/2017,139
4882168,23/03/2017,142
4882168,22/03/2017,147
4882168,21/03/2017,152
4882168,20/03/2017,157
4882168,19/03/2017,152
4882168,18/03/2017,147
4882168,17/03/2017,138
4882168,16/03/2017,140
4882168,15/03/2017,141
4882168,14/03/2017,141
4882168,13/03/2017,145
4882168,12/03/2017,149
4882168,11/03/2017,153
4882168,10/03/2017,158
4882168,09/03/2017,152
4882168,08/03/2017,144
4882168,07/03/2017,146
4882168,06/03/2017,149
4882168,05/03/2017,152
4882168,04/03/2017,153
4882168,03/03/2017,156
4882168,02/03/2017,157
4882168,01/03/2017,150
4882168,28/02/2017,154
4882168,27/02/2017,152
4882168,26/02/2017,158
4882168,25/02/2017,169
4882168,24/02/2017,194
4882168,23/02/2017,224
4882168,22/02/2017,194
4882168,21/02/2017,183
4882168,20/02/2017,145
4882168,19/02/2017,138
4882168,18/02/2017,138
4882168,17/02/2017,131
4882168,16/02/2017,127
4882168,15/02/2017,127
4882168,14/02/2017,127
4882168,13/02/2017,128
4882168,12/02/2017,129
4882168,11/02/2017,131
4882168,10/02/2017,132
4882168,09/02/2017,134
4882168,08/02/2017,137
4882168,07/02/2017,139
4882168,06/02/2017,141
4882168,05/02/2017,143
4882168,04/02/2017,141
4882168,03/02/2017,136
4882168,02/02/2017,128
4882168,01/02/2017,126
4882168,31/01/2017,130
4882168,30/01/2017,121
4882168,29/01/2017,120
4882168,28/01/2017,120
4882168,27/01/2017,118
4882168,26/01/2017,120
4882168,25/01/2017,120
4882168,24/01/2017,122
4882168,23/01/2017,121
4882168,22/01/2017,121
4882168,21/01/2017,123
4882168,20/01/2017,122
4882168,19/01/2017,122
4882168,18/01/2017,121
4882168,17/01/2017,123
4882168,16/01/2017,123
4882168,15/01/2017,126
4882168,14/01/2017,127
4882168,13/01/2017,128
4882168,12/01/2017,126
4882168,11/01/2017,125
4882168,10/01/2017,126
4882168,09/01/2017,127
4882168,08/01/2017,129
4882168,07/01/2017,134
4882168,06/01/2017,133
4882168,05/01/2017,132
4882168,04/01/2017,135
4882168,03/01/2017,131
4882168,02/01/2017,132
4882168,01/01/2017,134
4882168,31/12/2016,136
4882168,30/12/2016,139
4882168,29/12/2016,142
4882168,28/12/2016,145
4882168,27/12/2016,148
4882168,26/12/2016,151
4882168,25/12/2016,135
4882168,24/12/2016,126
4882168,23/12/2016,126
4882168,22/12/2016,126
4882168,21/12/2016,128
4882168,20/12/2016,130
4882168,19/12/2016,131
4882168,18/12/2016,131
4882168,17/12/2016,133
4882168,16/12/2016,136
4882168,15/12/2016,139
4882168,14/12/2016,143
4882168,13/12/2016,149
4882168,12/12/2016,154
4882168,11/12/2016,123
4882168,10/12/2016,115
4882168,09/12/2016,115
4882168,08/12/2016,116
4882168,07/12/2016,115
4882168,06/12/2016,115
4882168,05/12/2016,117
4882168,04/12/2016,120
4882168,03/12/2016,124
4882168,02/12/2016,124
4882168,01/12/2016,120
4882168,30/11/2016,120
4882168,29/11/2016,121
4882168,28/11/2016,123
4882168,27/11/2016,125
4882168,26/11/2016,125
4882168,25/11/2016,127
4882168,24/11/2016,129
4882168,23/11/2016,131
4882168,22/11/2016,135
4882168,21/11/2016,138
4882168,20/11/2016,143
4882168,19/11/2016,151
4882168,18/11/2016,155
4882168,17/11/2016,148
4882168,16/11/2016,126
4882168,15/11/2016,112
4882168,14/11/2016,112
4882168,13/11/2016,114
4882168,12/11/2016,116
4882168,11/11/2016,118
4882168,10/11/2016,117
4882168,09/11/2016,119
4882168,08/11/2016,120
4882168,07/11/2016,114
4882168,06/11/2016,112
4882168,05/11/2016,112
4882168,04/11/2016,115
4882168,03/11/2016,116
4882168,02/11/2016,108
4882168,01/11/2016,109
4882168,31/10/2016,112
4882168,30/10/2016,117
4882168,29/10/2016,118
4882168,28/10/2016,118
4882168,27/10/2016,121
4882168,26/10/2016,124
4882168,25/10/2016,128
4882168,24/10/2016,122
4882168,23/10/2016,128
4882168,22/10/2016,143
4882168,21/10/2016,126
4882168,20/10/2016,133
4882168,19/10/2016,98
4882168,18/10/2016,97
4882168,17/10/2016,97
4882168,16/10/2016,97
4882168,15/10/2016,97
4882168,14/10/2016,97
4882168,13/10/2016,97
4882168,12/10/2016,97
4882168,11/10/2016,97
4882168,10/10/2016,97
4882168,09/10/2016,97
4882168,08/10/2016,105
4882168,07/10/2016,119
4882168,06/10/2016,96
4882168,05/10/2016,96
4882168,04/10/2016,96
4882168,03/10/2016,97
4882168,02/10/2016,96
4882168,01/10/2016,96
4882168,30/09/2016,96
4882168,29/09/2016,96
4882168,28/09/2016,96
4882168,27/09/2016,96
4882168,26/09/2016,96
4882168,25/09/2016,96
4882168,24/09/2016,96
4882168,23/09/2016,96
4882168,22/09/2016,95
4882168,21/09/2016,95
4882168,20/09/2016,95
4882168,19/09/2016,95
4882168,18/09/2016,96
4882168,17/09/2016,95
4882168,16/09/2016,95
4882168,15/09/2016,95
4882168,14/09/2016,94
4882168,13/09/2016,95
4882168,12/09/2016,95
4882168,11/09/2016,95
4882168,10/09/2016,95
4882168,09/09/2016,95
4882168,08/09/2016,95
4882168,07/09/2016,96
4882168,06/09/2016,96
4882168,05/09/2016,96
4882168,04/09/2016,95
4882168,03/09/2016,95
4882168,02/09/2016,95
4882168,01/09/2016,95
4882168,31/08/2016,95
4882168,30/08/2016,96
4882168,29/08/2016,96
4882168,28/08/2016,95
4882168,27/08/2016,95
4882168,26/08/2016,95
4882168,25/08/2016,95
4882168,24/08/2016,95
4882168,23/08/2016,96
4882168,22/08/2016,96
4882168,21/08/2016,96
4882168,20/08/2016,96
4882168,19/08/2016,96
4882168,18/08/2016,97
4882168,17/08/2016,97
4882168,16/08/2016,97
4882168,15/08/2016,98
4882168,14/08/2016,98
4882168,13/08/2016,98
4882168,12/08/2016,98
4882168,11/08/2016,98
4882168,10/08/2016,98
4882168,09/08/2016,98
4882168,08/08/2016,98
4882168,07/08/2016,98
4882168,06/08/2016,98
4882168,05/08/2016,99
4882168,04/08/2016,99
4882168,03/08/2016,98
4882168,02/08/2016,98
4882168,01/08/2016,98
4882168,31/07/2016,98
4882168,30/07/2016,98
4882168,29/07/2016,98
4882168,28/07/2016,98
4882168,27/07/2016,98
4882168,26/07/2016,97
4882168,25/07/2016,97
4882168,24/07/2016,97
4882168,23/07/2016,97
4882168,22/07/2016,97
4882168,21/07/2016,98
4882168,20/07/2016,98
4882168,19/07/2016,98
4882168,18/07/2016,98
4882168,17/07/2016,98
4882168,16/07/2016,98
4882168,15/07/2016,98
4882168,14/07/2016,99
4882168,13/07/2016,99
4882168,12/07/2016,98
4882168,11/07/2016,98
4882168,10/07/2016,98
4882168,09/07/2016,99
4882168,08/07/2016,100
4882168,07/07/2016,102
4882168,06/07/2016,102
4882168,05/07/2016,102
4882168,04/07/2016,102
4882168,03/07/2016,102
4882168,02/07/2016,102
4882168,01/07/2016,102
4882168,30/06/2016,101
4882168,29/06/2016,100
4882168,28/06/2016,100
4882168,27/06/2016,101
4882168,26/06/2016,102
4882168,25/06/2016,103
4882168,24/06/2016,102
4882168,23/06/2016,102
4882168,22/06/2016,110
4882168,21/06/2016,107
4882168,20/06/2016,101
4882168,19/06/2016,103
4882168,18/06/2016,104
4882168,17/06/2016,106
4882168,16/06/2016,112
4882168,15/06/2016,118
4882168,14/06/2016,114
4882168,13/06/2016,103
4882168,12/06/2016,99
4882168,11/06/2016,98
4882168,10/06/2016,99
4882168,09/06/2016,99
4882168,08/06/2016,99
4882168,07/06/2016,100
4882168,06/06/2016,103
4882168,05/06/2016,101
4882168,04/06/2016,108
4882168,03/06/2016,121
4882168,02/06/2016,126
4882168,01/06/2016,100
4882168,31/05/2016,99
4882168,30/05/2016,99
4882168,29/05/2016,99
4882168,28/05/2016,100
4882168,27/05/2016,100
4882168,26/05/2016,101
4882168,25/05/2016,103
4882168,24/05/2016,100
4882168,23/05/2016,100
4882168,22/05/2016,100
4882168,21/05/2016,101
4882168,20/05/2016,101
4882168,19/05/2016,105
4882168,18/05/2016,109
4882168,17/05/2016,111
4882168,16/05/2016,113
4882168,15/05/2016,108
4882168,14/05/2016,108
4882168,13/05/2016,108
4882168,12/05/2016,109
4882168,11/05/2016,111
4882168,10/05/2016,113
4882168,09/05/2016,114
4882168,08/05/2016,116
4882168,07/05/2016,118
4882168,06/05/2016,121
4882168,05/05/2016,122
4882168,04/05/2016,125
4882168,03/05/2016,127
4882168,02/05/2016,134
4882168,01/05/2016,132
4882168,30/04/2016,124
4882168,29/04/2016,123
4882168,28/04/2016,123
4882168,27/04/2016,120
4882168,26/04/2016,118
4882168,25/04/2016,114
4882168,24/04/2016,113
4882168,23/04/2016,113
4882168,22/04/2016,115
4882168,21/04/2016,117
4882168,20/04/2016,118
4882168,19/04/2016,119
4882168,18/04/2016,120
4882168,17/04/2016,122
4882168,16/04/2016,122
4882168,15/04/2016,123
4882168,14/04/2016,123
4882168,13/04/2016,124
4882168,12/04/2016,126
4882168,11/04/2016,127
4882168,10/04/2016,129
4882168,09/04/2016,131
4882168,08/04/2016,132
4882168,07/04/2016,134
4882168,06/04/2016,137
4882168,05/04/2016,137
4882168,04/04/2016,133
4882168,03/04/2016,135
4882168,02/04/2016,137
4882168,01/04/2016,139
4882168,31/03/2016,141
4882168,30/03/2016,140
4882168,29/03/2016,135
4882168,28/03/2016,129
4882168,27/03/2016,129
4882168,26/03/2016,132
4882168,25/03/2016,124
4882168,24/03/2016,123
4882168,23/03/2016,124
4882168,22/03/2016,124
4882168,21/03/2016,120
4882168,20/03/2016,120
4882168,19/03/2016,121
4882168,18/03/2016,120
4882168,17/03/2016,120
4882168,16/03/2016,121
4882168,15/03/2016,122
4882168,14/03/2016,122
4882168,13/03/2016,123
4882168,12/03/2016,124
4882168,11/03/2016,126
4882168,10/03/2016,127
4882168,09/03/2016,126
4882168,08/03/2016,127
4882168,07/03/2016,129
4882168,06/03/2016,131
4882168,05/03/2016,130
4882168,04/03/2016,131
4882168,03/03/2016,133
4882168,02/03/2016,135
4882168,01/03/2016,136
4882168,29/02/2016,139
4882168,28/02/2016,142
4882168,27/02/2016,146
4882168,26/02/2016,151
4882168,25/02/2016,158
4882168,24/02/2016,167
4882168,23/02/2016,181
4882168,22/02/2016,195
4882168,21/02/2016,164
4882168,20/02/2016,131
4882168,19/02/2016,132
4882168,18/02/2016,133
4882168,17/02/2016,134
4882168,16/02/2016,135
4882168,15/02/2016,138
4882168,14/02/2016,140
4882168,13/02/2016,141
4882168,12/02/2016,143
4882168,11/02/2016,145
4882168,10/02/2016,149
4882168,09/02/2016,150
4882168,08/02/2016,152
4882168,07/02/2016,155
4882168,06/02/2016,159
4882168,05/02/2016,156
4882168,04/02/2016,161
4882168,03/02/2016,170
4882168,02/02/2016,177
4882168,01/02/2016,171
4882168,31/01/2016,164
4882168,30/01/2016,157
4882168,29/01/2016,153
4882168,28/01/2016,160
4882168,27/01/2016,156
4882168,26/01/2016,149
4882168,25/01/2016,143
4882168,24/01/2016,132
4882168,23/01/2016,133
4882168,22/01/2016,142
4882168,21/01/2016,131
4882168,20/01/2016,134
4882168,19/01/2016,135
4882168,18/01/2016,137
4882168,17/01/2016,140
4882168,16/01/2016,143
4882168,15/01/2016,148
4882168,14/01/2016,151
4882168,13/01/2016,152
4882168,12/01/2016,146
4882168,11/01/2016,138
4882168,10/01/2016,127
4882168,09/01/2016,126
4882168,08/01/2016,127
4882168,07/01/2016,125
4882168,06/01/2016,125
4882168,05/01/2016,125
4882168,04/01/2016,125
4882168,03/01/2016,125
4882168,02/01/2016,126
4882168,01/01/2016,127
4882168,31/12/2015,127
4882168,30/12/2015,127
4882168,29/12/2015,127
4882168,28/12/2015,127
4882168,27/12/2015,129
4882168,26/12/2015,131
4882168,25/12/2015,130
4882168,24/12/2015,131
4882168,23/12/2015,132
4882168,22/12/2015,134
4882168,21/12/2015,133
4882168,20/12/2015,132
4882168,19/12/2015,134
4882168,18/12/2015,136
4882168,17/12/2015,136
4882168,16/12/2015,131
4882168,15/12/2015,132
4882168,14/12/2015,135
4882168,13/12/2015,137
4882168,12/12/2015,135
4882168,11/12/2015,133
4882168,10/12/2015,135
4882168,09/12/2015,137
4882168,08/12/2015,138
4882168,07/12/2015,140
4882168,06/12/2015,144
4882168,05/12/2015,149
4882168,04/12/2015,155
4882168,03/12/2015,165
4882168,02/12/2015,181
4882168,01/12/2015,219
4882168,30/11/2015,192
4882168,29/11/2015,147
4882168,28/11/2015,138
4882168,27/11/2015,139
4882168,26/11/2015,139
4882168,25/11/2015,140
4882168,24/11/2015,141
4882168,23/11/2015,146
4882168,22/11/2015,152
4882168,21/11/2015,158
4882168,20/11/2015,167
4882168,19/11/2015,160
4882168,18/11/2015,171
4882168,17/11/2015,174
4882168,16/11/2015,204
4882168,15/11/2015,179
4882168,14/11/2015,115
4882168,13/11/2015,114
4882168,12/11/2015,119
4882168,11/11/2015,112
4882168,10/11/2015,110
4882168,09/11/2015,112
4882168,08/11/2015,116
4882168,07/11/2015,108
4882168,06/11/2015,102
4882168,05/11/2015,102
4882168,04/11/2015,103
4882168,03/11/2015,103
4882168,02/11/2015,103
4882168,01/11/2015,103
4882168,31/10/2015,103
4882168,30/10/2015,105
4882168,29/10/2015,106
4882168,28/10/2015,107
4882168,27/10/2015,108
4882168,26/10/2015,109
4882168,25/10/2015,111
4882168,24/10/2015,115
4882168,23/10/2015,117
4882168,22/10/2015,110
4882168,21/10/2015,110
4882168,20/10/2015,105
4882168,19/10/2015,102
4882168,18/10/2015,104
4882168,17/10/2015,106
4882168,16/10/2015,108
4882168,15/10/2015,103
4882168,14/10/2015,98
4882168,13/10/2015,98
4882168,12/10/2015,99
4882168,11/10/2015,103
4882168,10/10/2015,113
4882168,09/10/2015,101
4882168,08/10/2015,93
4882168,07/10/2015,94
4882168,06/10/2015,94
4882168,05/10/2015,94
4882168,04/10/2015,95
4882168,03/10/2015,95
4882168,02/10/2015,96
4882168,01/10/2015,97
4882168,30/09/2015,98
4882168,29/09/2015,99
4882168,28/09/2015,101
4882168,27/09/2015,103
4882168,26/09/2015,104
4882168,25/09/2015,108
4882168,24/09/2015,112
4882168,23/09/2015,117
4882168,22/09/2015,109
4882168,21/09/2015,112
4882168,20/09/2015,102
4882168,19/09/2015,104
4882168,18/09/2015,108
4882168,17/09/2015,107
4882168,16/09/2015,105
4882168,15/09/2015,112
4882168,14/09/2015,101
4882168,13/09/2015,100
4882168,12/09/2015,99
4882168,11/09/2015,98
4882168,10/09/2015,95
4882168,09/09/2015,103
4882168,08/09/2015,118
4882168,07/09/2015,121
4882168,06/09/2015,101
4882168,05/09/2015,100
4882168,04/09/2015,100
4882168,03/09/2015,100
4882168,02/09/2015,100
4882168,01/09/2015,100
4882168,31/08/2015,100
4882168,30/08/2015,100
4882168,29/08/2015,101
4882168,28/08/2015,102
4882168,27/08/2015,100
4882168,26/08/2015,100
4882168,25/08/2015,100
4882168,24/08/2015,100
4882168,23/08/2015,101
4882168,22/08/2015,101
4882168,21/08/2015,102
4882168,20/08/2015,103
4882168,19/08/2015,111
4882168,18/08/2015,108
4882168,17/08/2015,99
4882168,16/08/2015,99
4882168,15/08/2015,99
4882168,14/08/2015,99
4882168,13/08/2015,99
4882168,12/08/2015,99
4882168,11/08/2015,99
4882168,10/08/2015,99
4882168,09/08/2015,100
4882168,08/08/2015,100
4882168,07/08/2015,100
4882168,06/08/2015,101
4882168,05/08/2015,102
4882168,04/08/2015,103
4882168,03/08/2015,106
4882168,02/08/2015,108
4882168,01/08/2015,112
4882168,31/07/2015,115
4882168,30/07/2015,119
4882168,29/07/2015,121
4882168,28/07/2015,127
4882168,27/07/2015,120
4882168,26/07/2015,114
4882168,25/07/2015,114
4882168,24/07/2015,111
4882168,23/07/2015,115
4882168,22/07/2015,120
4882168,21/07/2015,122
4882168,20/07/2015,126
4882168,19/07/2015,127
4882168,18/07/2015,123
4882168,17/07/2015,127
4882168,16/07/2015,133
4882168,15/07/2015,144
4882168,14/07/2015,141
4882168,13/07/2015,116
4882168,12/07/2015,107
4882168,11/07/2015,112
4882168,10/07/2015,121
4882168,09/07/2015,126
4882168,08/07/2015,112
4882168,07/07/2015,110
4882168,06/07/2015,119
4882168,05/07/2015,101
4882168,04/07/2015,101
4882168,03/07/2015,102
4882168,02/07/2015,101
4882168,01/07/2015,101
4882168,30/06/2015,102
4882168,29/06/2015,109
4882168,28/06/2015,122
4882168,27/06/2015,107
4882168,26/06/2015,103
4882168,25/06/2015,114
4882168,24/06/2015,124
4882168,23/06/2015,120
4882168,22/06/2015,100
4882168,21/06/2015,100
4882168,20/06/2015,100
4882168,19/06/2015,100
4882168,18/06/2015,101
4882168,17/06/2015,100
4882168,16/06/2015,100
4882168,15/06/2015,100
4882168,14/06/2015,101
4882168,13/06/2015,100
4882168,12/06/2015,100
4882168,11/06/2015,100
4882168,10/06/2015,100
4882168,09/06/2015,100
4882168,08/06/2015,100
4882168,07/06/2015,101
4882168,06/06/2015,99
4882168,05/06/2015,100
4882168,04/06/2015,100
4882168,03/06/2015,100
4882168,02/06/2015,101
4882168,01/06/2015,101
4882168,31/05/2015,101
4882168,30/05/2015,101
4882168,29/05/2015,101
4882168,28/05/2015,101
4882168,27/05/2015,101
4882168,26/05/2015,102
4882168,25/05/2015,103
4882168,24/05/2015,103
4882168,23/05/2015,104
4882168,22/05/2015,106
4882168,21/05/2015,107
4882168,20/05/2015,108
4882168,19/05/2015,109
4882168,18/05/2015,110
4882168,17/05/2015,111
4882168,16/05/2015,111
4882168,15/05/2015,113
4882168,14/05/2015,115
4882168,13/05/2015,118
4882168,12/05/2015,115
4882168,11/05/2015,116
4882168,10/05/2015,118
4882168,09/05/2015,118
4882168,08/05/2015,120
4882168,07/05/2015,120
4882168,06/05/2015,122
4882168,05/05/2015,125
4882168,04/05/2015,129
4882168,03/05/2015,121
4882168,02/05/2015,124
4882168,01/05/2015,128
4882168,30/04/2015,121
4882168,29/04/2015,122
4882168,28/04/2015,127
4882168,27/04/2015,126
4882168,26/04/2015,122
4882168,25/04/2015,122
4882168,24/04/2015,123
4882168,23/04/2015,124
4882168,22/04/2015,125
4882168,21/04/2015,126
4882168,20/04/2015,128
4882168,19/04/2015,129
4882168,18/04/2015,131
4882168,17/04/2015,134
4882168,16/04/2015,137
4882168,15/04/2015,138
4882168,14/04/2015,141
4882168,13/04/2015,145
4882168,12/04/2015,151
4882168,11/04/2015,154
4882168,10/04/2015,156
4882168,09/04/2015,153
4882168,08/04/2015,147
4882168,07/04/2015,146
4882168,06/04/2015,148
4882168,05/04/2015,150
4882168,04/04/2015,153
4882168,03/04/2015,156
4882168,02/04/2015,161
4882168,01/04/2015,165
4882168,31/03/2015,164
4882168,30/03/2015,164
4882168,29/03/2015,144
4882168,28/03/2015,133
4882168,27/03/2015,133
4882168,26/03/2015,135
4882168,25/03/2015,132
4882168,24/03/2015,132
4882168,23/03/2015,133
4882168,22/03/2015,135
4882168,21/03/2015,138
4882168,20/03/2015,141
4882168,19/03/2015,142
4882168,18/03/2015,140
4882168,17/03/2015,135
4882168,16/03/2015,134
4882168,15/03/2015,135
4882168,14/03/2015,137
4882168,13/03/2015,139
4882168,12/03/2015,141
4882168,11/03/2015,142
4882168,10/03/2015,141
4882168,09/03/2015,136
4882168,08/03/2015,132
4882168,07/03/2015,132
4882168,06/03/2015,132
4882168,05/03/2015,133
4882168,04/03/2015,133
4882168,03/03/2015,132
4882168,02/03/2015,131
4882168,01/03/2015,130
4882168,28/02/2015,129
4882168,27/02/2015,129
4882168,26/02/2015,129
4882168,25/02/2015,130
4882168,24/02/2015,130
4882168,23/02/2015,130
4882168,22/02/2015,130
4882168,21/02/2015,129
4882168,20/02/2015,129
4882168,19/02/2015,129
4882168,18/02/2015,129
4882168,17/02/2015,130
4882168,16/02/2015,130
4882168,15/02/2015,131
4882168,14/02/2015,131
4882168,13/02/2015,132
4882168,12/02/2015,132
4882168,11/02/2015,132
4882168,10/02/2015,131
4882168,09/02/2015,124
4882168,08/02/2015,122
4882168,07/02/2015,120
4882168,06/02/2015,122
4882168,05/02/2015,123
4882168,04/02/2015,124
4882168,03/02/2015,125
4882168,02/02/2015,125
4882168,01/02/2015,127
4882168,31/01/2015,128
4882168,30/01/2015,130
4882168,29/01/2015,130
4882168,28/01/2015,129
4882168,27/01/2015,130
4882168,26/01/2015,127
4882168,25/01/2015,128
4882168,24/01/2015,128
4882168,23/01/2015,130
4882168,22/01/2015,132
4882168,21/01/2015,134
4882168,20/01/2015,137
4882168,19/01/2015,141
4882168,18/01/2015,144
4882168,17/01/2015,148
4882168,16/01/2015,153
4882168,15/01/2015,156
4882168,14/01/2015,163
4882168,13/01/2015,167
4882168,12/01/2015,169
4882168,11/01/2015,170
4882168,10/01/2015,166
4882168,09/01/2015,166
4882168,08/01/2015,139
4882168,07/01/2015,135
4882168,06/01/2015,135
4882168,05/01/2015,136
4882168,04/01/2015,137
4882168,03/01/2015,137
4882168,02/01/2015,137
4882168,01/01/2015,138
4882168,31/12/2012,147
4882168,30/12/2012,151
4882168,29/12/2012,156
4882168,28/12/2012,165
4882168,27/12/2012,177
4882168,26/12/2012,179
4882168,25/12/2012,187
4882168,24/12/2012,212
4882168,23/12/2012,173
4882168,22/12/2012,144
4882168,21/12/2012,147
4882168,20/12/2012,151
4882168,19/12/2012,156
4882168,18/12/2012,158
4882168,17/12/2012,151
4882168,16/12/2012,151
4882168,15/12/2012,145
4882168,14/12/2012,119
4882168,13/12/2012,119
4882168,12/12/2012,119
4882168,11/12/2012,120
4882168,10/12/2012,120
4882168,09/12/2012,118
4882168,08/12/2012,116
4882168,07/12/2012,119
4882168,06/12/2012,120
4882168,05/12/2012,121
4882168,04/12/2012,120
4882168,03/12/2012,120
4882168,02/12/2012,120
4882168,01/12/2012,121
4882168,30/11/2012,122
4882168,29/11/2012,122
4882168,28/11/2012,123
4882168,27/11/2012,123
4882168,26/11/2012,121
4882168,25/11/2012,123
4882168,24/11/2012,122
4882168,23/11/2012,119
4882168,22/11/2012,120
4882168,21/11/2012,121
4882168,20/11/2012,122
4882168,19/11/2012,123
4882168,18/11/2012,123
4882168,17/11/2012,125
4882168,16/11/2012,126
4882168,15/11/2012,128
4882168,14/11/2012,129
4882168,13/11/2012,131
4882168,12/11/2012,133
4882168,11/11/2012,138
4882168,10/11/2012,136
4882168,09/11/2012,139
4882168,08/11/2012,146
4882168,07/11/2012,149
4882168,06/11/2012,121
4882168,05/11/2012,121
4882168,04/11/2012,121
4882168,03/11/2012,117
4882168,02/11/2012,106
4882168,01/11/2012,106
4882168,31/10/2012,103
4882168,30/10/2012,100
4882168,29/10/2012,100
4882168,28/10/2012,100
4882168,27/10/2012,100
4882168,26/10/2012,100
4882168,25/10/2012,101
4882168,24/10/2012,101
4882168,23/10/2012,102
4882168,22/10/2012,103
4882168,21/10/2012,105
4882168,20/10/2012,108
4882168,19/10/2012,111
4882168,18/10/2012,114
4882168,17/10/2012,118
4882168,16/10/2012,123
4882168,15/10/2012,121
4882168,14/10/2012,113
4882168,13/10/2012,118
4882168,12/10/2012,108
4882168,11/10/2012,107
4882168,10/10/2012,110
4882168,09/10/2012,113
4882168,08/10/2012,119
4882168,07/10/2012,126
4882168,06/10/2012,129
4882168,05/10/2012,129
4882168,04/10/2012,110
4882168,03/10/2012,99
4882168,02/10/2012,99
4882168,01/10/2012,99
4882168,30/09/2012,99
4882168,29/09/2012,99
4882168,28/09/2012,99
4882168,27/09/2012,99
4882168,26/09/2012,98
4882168,25/09/2012,100
4882168,24/09/2012,99
4882168,23/09/2012,99
4882168,22/09/2012,99
4882168,21/09/2012,99
4882168,20/09/2012,99
4882168,19/09/2012,99
4882168,18/09/2012,99
4882168,17/09/2012,99
4882168,16/09/2012,99
4882168,15/09/2012,99
4882168,14/09/2012,100
4882168,13/09/2012,100
4882168,12/09/2012,101
4882168,11/09/2012,101
4882168,10/09/2012,100
4882168,09/09/2012,100
4882168,08/09/2012,100
4882168,07/09/2012,100
4882168,06/09/2012,100
4882168,05/09/2012,100
4882168,04/09/2012,100
4882168,03/09/2012,101
4882168,02/09/2012,101
4882168,01/09/2012,103
4882168,31/08/2012,102
4882168,30/08/2012,100
4882168,29/08/2012,100
4882168,28/08/2012,100
4882168,27/08/2012,100
4882168,26/08/2012,100
4882168,25/08/2012,102
4882168,24/08/2012,101
4882168,23/08/2012,100
4882168,22/08/2012,100
4882168,21/08/2012,100
4882168,20/08/2012,100
4882168,19/08/2012,100
4882168,18/08/2012,101
4882168,17/08/2012,101
4882168,16/08/2012,101
4882168,15/08/2012,100
4882168,14/08/2012,100
4882168,13/08/2012,100
4882168,12/08/2012,100
4882168,11/08/2012,101
4882168,10/08/2012,101
4882168,09/08/2012,102
4882168,08/08/2012,102
4882168,07/08/2012,106
4882168,06/08/2012,108
4882168,05/08/2012,102
4882168,04/08/2012,102
4882168,03/08/2012,104
4882168,02/08/2012,106
4882168,01/08/2012,109
4882168,31/07/2012,113
4882168,30/07/2012,118
4882168,29/07/2012,120
4882168,28/07/2012,123
4882168,27/07/2012,121
4882168,26/07/2012,123
4882168,25/07/2012,125
4882168,24/07/2012,128
4882168,23/07/2012,131
4882168,22/07/2012,135
4882168,21/07/2012,138
4882168,20/07/2012,143
4882168,19/07/2012,149
4882168,18/07/2012,154
4882168,17/07/2012,163
4882168,16/07/2012,133
4882168,15/07/2012,138
4882168,14/07/2012,140
4882168,13/07/2012,107
4882168,12/07/2012,101
4882168,11/07/2012,101
4882168,10/07/2012,101
4882168,09/07/2012,101
4882168,08/07/2012,101
4882168,07/07/2012,101
4882168,06/07/2012,102
4882168,05/07/2012,102
4882168,04/07/2012,103
4882168,03/07/2012,104
4882168,02/07/2012,104
4882168,01/07/2012,105
4882168,30/06/2012,106
4882168,29/06/2012,107
4882168,28/06/2012,110
4882168,27/06/2012,108
4882168,26/06/2012,112
4882168,25/06/2012,107
4882168,24/06/2012,103
4882168,23/06/2012,105
4882168,22/06/2012,110
4882168,21/06/2012,118
4882168,20/06/2012,111
4882168,19/06/2012,102
4882168,18/06/2012,104
4882168,17/06/2012,108
4882168,16/06/2012,106
4882168,15/06/2012,106
4882168,14/06/2012,107
4882168,13/06/2012,109
4882168,12/06/2012,111
4882168,11/06/2012,112
4882168,10/06/2012,114
4882168,09/06/2012,117
4882168,08/06/2012,121
4882168,07/06/2012,124
4882168,06/06/2012,128
4882168,05/06/2012,140
4882168,04/06/2012,120
4882168,03/06/2012,112
4882168,02/06/2012,115
4882168,01/06/2012,123
4882168,31/05/2012,101
4882168,30/05/2012,101
4882168,29/05/2012,101
4882168,28/05/2012,102
4882168,27/05/2012,102
4882168,26/05/2012,102
4882168,25/05/2012,103
4882168,24/05/2012,105
4882168,23/05/2012,108
4882168,22/05/2012,109
4882168,21/05/2012,113
4882168,20/05/2012,113
4882168,19/05/2012,116
4882168,18/05/2012,119
4882168,17/05/2012,122
4882168,16/05/2012,121
4882168,15/05/2012,119
4882168,14/05/2012,120
4882168,13/05/2012,122
4882168,12/05/2012,124
4882168,11/05/2012,123
4882168,10/05/2012,126
4882168,09/05/2012,125
4882168,08/05/2012,126
4882168,07/05/2012,129
4882168,06/05/2012,132
4882168,05/05/2012,130
4882168,04/05/2012,132
4882168,03/05/2012,145
4882168,02/05/2012,111
4882168,01/05/2012,111
4882168,30/04/2012,113
4882168,29/04/2012,114
4882168,28/04/2012,116
4882168,27/04/2012,119
4882168,26/04/2012,120
4882168,25/04/2012,123
4882168,24/04/2012,125
4882168,23/04/2012,125
4882168,22/04/2012,122
4882168,21/04/2012,121
4882168,20/04/2012,122
4882168,19/04/2012,123
4882168,18/04/2012,123
4882168,17/04/2012,123
4882168,16/04/2012,124
4882168,15/04/2012,125
4882168,14/04/2012,128
4882168,13/04/2012,129
4882168,12/04/2012,125
4882168,11/04/2012,128
4882168,10/04/2012,129
4882168,09/04/2012,122
4882168,08/04/2012,123
4882168,07/04/2012,124
4882168,06/04/2012,124
4882168,05/04/2012,126
4882168,04/04/2012,127
4882168,03/04/2012,127
4882168,02/04/2012,128
4882168,01/04/2012,131
4882168,31/03/2012,134
4882168,30/03/2012,133
4882168,29/03/2012,126
4882168,28/03/2012,127
4882168,27/03/2012,128
4882168,26/03/2012,130
4882168,25/03/2012,132
4882168,24/03/2012,133
4882168,23/03/2012,134
4882168,22/03/2012,135
4882168,21/03/2012,134
4882168,20/03/2012,136
4882168,19/03/2012,140
4882168,18/03/2012,143
4882168,17/03/2012,143
4882168,16/03/2012,140
4882168,15/03/2012,140
4882168,14/03/2012,144
4882168,13/03/2012,146
4882168,12/03/2012,146
4882168,11/03/2012,143
4882168,10/03/2012,139
4882168,09/03/2012,140
4882168,08/03/2012,142
4882168,07/03/2012,141
4882168,06/03/2012,144
4882168,05/03/2012,149
4882168,04/03/2012,152
4882168,03/03/2012,156
4882168,02/03/2012,162
4882168,01/03/2012,166
4882168,29/02/2012,161
4882168,28/02/2012,151
4882168,27/02/2012,153
4882168,26/02/2012,161
4882168,25/02/2012,172
4882168,24/02/2012,155
4882168,23/02/2012,128
4882168,22/02/2012,124
4882168,21/02/2012,125
4882168,20/02/2012,128
4882168,19/02/2012,134
4882168,18/02/2012,137
4882168,17/02/2012,139
4882168,16/02/2012,140
4882168,15/02/2012,142
4882168,14/02/2012,143
4882168,13/02/2012,144
4882168,12/02/2012,145
4882168,11/02/2012,146
4882168,10/02/2012,148
4882168,09/02/2012,149
4882168,08/02/2012,150
4882168,07/02/2012,151
4882168,06/02/2012,152
4882168,05/02/2012,152
4882168,04/02/2012,147
4882168,03/02/2012,145
4882168,02/02/2012,139
4882168,01/02/2012,132
4882168,31/01/2012,132
4882168,30/01/2012,135
4882168,29/01/2012,138
4882168,28/01/2012,141
4882168,27/01/2012,145
4882168,26/01/2012,149
4882168,25/01/2012,155
4882168,24/01/2012,163
4882168,23/01/2012,168
4882168,22/01/2012,152
4882168,21/01/2012,144
4882168,20/01/2012,145
4882168,19/01/2012,142
4882168,18/01/2012,139
4882168,17/01/2012,142
4882168,16/01/2012,146
4882168,15/01/2012,150
4882168,14/01/2012,155
4882168,13/01/2012,164
4882168,12/01/2012,165
4882168,11/01/2012,163
4882168,10/01/2012,171
4882168,09/01/2012,167
4882168,08/01/2012,166
4882168,07/01/2012,162
4882168,06/01/2012,166
4882168,05/01/2012,166
4882168,04/01/2012,164
4882168,03/01/2012,173
4882168,02/01/2012,181
4882168,01/01/2012,158
4882168,31/12/2010,129
4882168,30/12/2010,128
4882168,29/12/2010,128
4882168,28/12/2010,130
4882168,27/12/2010,131
4882168,26/12/2010,134
4882168,25/12/2010,132
4882168,24/12/2010,137
4882168,23/12/2010,133
4882168,22/12/2010,129
4882168,21/12/2010,133
4882168,20/12/2010,130
4882168,19/12/2010,132
4882168,18/12/2010,133
4882168,17/12/2010,135
4882168,16/12/2010,135
4882168,15/12/2010,136
4882168,14/12/2010,138
4882168,13/12/2010,140
4882168,12/12/2010,147
4882168,11/12/2010,131
4882168,10/12/2010,122
4882168,09/12/2010,123
4882168,08/12/2010,123
4882168,07/12/2010,124
4882168,06/12/2010,125
4882168,05/12/2010,125
4882168,04/12/2010,125
4882168,03/12/2010,127
4882168,02/12/2010,126
4882168,01/12/2010,126
4882168,30/11/2010,129
4882168,29/11/2010,130
4882168,28/11/2010,131
4882168,27/11/2010,132
4882168,26/11/2010,134
4882168,25/11/2010,135
4882168,24/11/2010,137
4882168,23/11/2010,136
4882168,22/11/2010,135
4882168,21/11/2010,137
4882168,20/11/2010,140
4882168,19/11/2010,143
4882168,18/11/2010,146
4882168,17/11/2010,151
4882168,16/11/2010,159
4882168,15/11/2010,174
4882168,14/11/2010,204
4882168,13/11/2010,204
4882168,12/11/2010,150
4882168,11/11/2010,146
4882168,10/11/2010,144
4882168,09/11/2010,147
4882168,08/11/2010,152
4882168,07/11/2010,159
4882168,06/11/2010,163
4882168,05/11/2010,149
4882168,04/11/2010,142
4882168,03/11/2010,120
4882168,02/11/2010,120
4882168,01/11/2010,121
4882168,31/10/2010,121
4882168,30/10/2010,122
4882168,29/10/2010,123
4882168,28/10/2010,124
4882168,27/10/2010,125
4882168,26/10/2010,125
4882168,25/10/2010,125
4882168,24/10/2010,126
4882168,23/10/2010,126
4882168,22/10/2010,128
4882168,21/10/2010,132
4882168,20/10/2010,132
4882168,19/10/2010,121
4882168,18/10/2010,122
4882168,17/10/2010,126
4882168,16/10/2010,128
4882168,15/10/2010,121
4882168,14/10/2010,119
4882168,13/10/2010,120
4882168,12/10/2010,120
4882168,11/10/2010,121
4882168,10/10/2010,122
4882168,09/10/2010,123
4882168,08/10/2010,124
4882168,07/10/2010,126
4882168,06/10/2010,127
4882168,05/10/2010,129
4882168,04/10/2010,131
4882168,03/10/2010,133
4882168,02/10/2010,136
4882168,01/10/2010,138
4882168,30/09/2010,141
4882168,29/09/2010,145
4882168,28/09/2010,157
4882168,27/09/2010,144
4882168,26/09/2010,130
4882168,25/09/2010,128
4882168,24/09/2010,127
4882168,23/09/2010,129
4882168,22/09/2010,131
4882168,21/09/2010,134
4882168,20/09/2010,137
4882168,19/09/2010,141
4882168,18/09/2010,145
4882168,17/09/2010,151
4882168,16/09/2010,159
4882168,15/09/2010,172
4882168,14/09/2010,148
4882168,13/09/2010,126
4882168,12/09/2010,128
4882168,11/09/2010,132
4882168,10/09/2010,134
4882168,09/09/2010,130
4882168,08/09/2010,126
4882168,07/09/2010,127
4882168,06/09/2010,130
4882168,05/09/2010,134
4882168,04/09/2010,136
4882168,03/09/2010,138
4882168,02/09/2010,144
4882168,01/09/2010,150
4882168,31/08/2010,163
4882168,30/08/2010,160
4882168,29/08/2010,146
4882168,28/08/2010,152
4882168,27/08/2010,154
4882168,26/08/2010,127
4882168,25/08/2010,123
4882168,24/08/2010,131
4882168,23/08/2010,130
4882168,22/08/2010,121
4882168,21/08/2010,122
4882168,20/08/2010,127
4882168,19/08/2010,135
4882168,18/08/2010,147
4882168,17/08/2010,120
4882168,16/08/2010,106
4882168,15/08/2010,109
4882168,14/08/2010,115
4882168,13/08/2010,126
4882168,12/08/2010,127
4882168,11/08/2010,102
4882168,10/08/2010,110
4882168,09/08/2010,117
4882168,08/08/2010,99
4882168,07/08/2010,99
4882168,06/08/2010,100
4882168,05/08/2010,100
4882168,04/08/2010,100
4882168,03/08/2010,100
4882168,02/08/2010,99
4882168,01/08/2010,99
4882168,31/07/2010,99
4882168,30/07/2010,100
4882168,29/07/2010,100
4882168,28/07/2010,100
4882168,27/07/2010,102
4882168,26/07/2010,99
4882168,25/07/2010,99
4882168,24/07/2010,99
4882168,23/07/2010,99
4882168,22/07/2010,99
4882168,21/07/2010,99
4882168,20/07/2010,99
4882168,19/07/2010,99
4882168,18/07/2010,99
4882168,17/07/2010,99
4882168,16/07/2010,99
4882168,15/07/2010,100
4882168,14/07/2010,99
4882168,13/07/2010,99
4882168,12/07/2010,99
4882168,11/07/2010,99
4882168,10/07/2010,100
4882168,09/07/2010,100
4882168,08/07/2010,101
4882168,07/07/2010,101
4882168,06/07/2010,101
4882168,05/07/2010,101
4882168,04/07/2010,101
4882168,03/07/2010,101
4882168,02/07/2010,102
4882168,01/07/2010,102
4882168,30/06/2010,103
4882168,29/06/2010,103
4882168,28/06/2010,103
4882168,27/06/2010,105
4882168,26/06/2010,107
4882168,25/06/2010,109
4882168,24/06/2010,112
4882168,23/06/2010,115
4882168,22/06/2010,117
4882168,21/06/2010,119
4882168,20/06/2010,120
4882168,19/06/2010,120
4882168,18/06/2010,121
4882168,17/06/2010,123
4882168,16/06/2010,124
4882168,15/06/2010,126
4882168,14/06/2010,128
4882168,13/06/2010,131
4882168,12/06/2010,132
4882168,11/06/2010,137
4882168,10/06/2010,152
4882168,09/06/2010,123
4882168,08/06/2010,123
4882168,07/06/2010,124
4882168,06/06/2010,125
4882168,05/06/2010,127
4882168,04/06/2010,129
4882168,03/06/2010,132
4882168,02/06/2010,135
4882168,01/06/2010,141
4882168,31/05/2010,140
4882168,30/05/2010,123
4882168,29/05/2010,121
4882168,28/05/2010,122
4882168,27/05/2010,123
4882168,26/05/2010,120
4882168,25/05/2010,122
4882168,24/05/2010,124
4882168,23/05/2010,125
4882168,22/05/2010,128
4882168,21/05/2010,134
4882168,20/05/2010,149
4882168,19/05/2010,126
4882168,18/05/2010,114
4882168,17/05/2010,118
4882168,16/05/2010,121
4882168,15/05/2010,117
4882168,14/05/2010,116
4882168,13/05/2010,116
4882168,12/05/2010,117
4882168,11/05/2010,117
4882168,10/05/2010,119
4882168,09/05/2010,117
4882168,08/05/2010,119
4882168,07/05/2010,120
4882168,06/05/2010,118
4882168,05/05/2010,116
4882168,04/05/2010,118
4882168,03/05/2010,117
4882168,02/05/2010,117
4882168,01/05/2010,118
4882168,30/04/2010,119
4882168,29/04/2010,121
4882168,28/04/2010,124
4882168,27/04/2010,125
4882168,26/04/2010,125
4882168,25/04/2010,125
4882168,24/04/2010,125
4882168,23/04/2010,126
4882168,22/04/2010,128
4882168,21/04/2010,128
4882168,20/04/2010,129
4882168,19/04/2010,130
4882168,18/04/2010,131
4882168,17/04/2010,132
4882168,16/04/2010,134
4882168,15/04/2010,136
4882168,14/04/2010,137
4882168,13/04/2010,139
4882168,12/04/2010,139
4882168,11/04/2010,141
4882168,10/04/2010,142
4882168,09/04/2010,144
4882168,08/04/2010,146
4882168,07/04/2010,148
4882168,06/04/2010,149
4882168,05/04/2010,153
4882168,04/04/2010,154
4882168,03/04/2010,152
4882168,02/04/2010,156
4882168,01/04/2010,163
4882168,31/03/2010,175
4882168,30/03/2010,176
4882168,29/03/2010,180
4882168,28/03/2010,176
4882168,27/03/2010,182
4882168,26/03/2010,175
4882168,25/03/2010,169
4882168,24/03/2010,168
4882168,23/03/2010,173
4882168,22/03/2010,186
4882168,21/03/2010,189
4882168,20/03/2010,163
4882168,19/03/2010,151
4882168,18/03/2010,148
4882168,17/03/2010,147
4882168,16/03/2010,149
4882168,15/03/2010,141
4882168,14/03/2010,137
4882168,13/03/2010,134
4882168,12/03/2010,135
4882168,11/03/2010,135
4882168,10/03/2010,137
4882168,09/03/2010,137
4882168,08/03/2010,139
4882168,07/03/2010,141
4882168,06/03/2010,144
4882168,05/03/2010,146
4882168,04/03/2010,150
4882168,03/03/2010,155
4882168,02/03/2010,162
4882168,01/03/2010,169
4882168,28/02/2010,163
4882168,27/02/2010,165
4882168,26/02/2010,157
4882168,25/02/2010,145
4882168,24/02/2010,141
4882168,23/02/2010,133
4882168,22/02/2010,121
4882168,21/02/2010,121
4882168,20/02/2010,121
4882168,19/02/2010,121
4882168,18/02/2010,121
4882168,17/02/2010,120
4882168,16/02/2010,120
4882168,15/02/2010,121
4882168,14/02/2010,118
4882168,13/02/2010,121
4882168,12/02/2010,121
4882168,11/02/2010,120
4882168,10/02/2010,121
4882168,09/02/2010,121
4882168,08/02/2010,122
4882168,07/02/2010,122
4882168,06/02/2010,123
4882168,05/02/2010,123
4882168,04/02/2010,123
4882168,03/02/2010,123
4882168,02/02/2010,123
4882168,01/02/2010,123
4882168,31/01/2010,124
4882168,30/01/2010,125
4882168,29/01/2010,125
4882168,28/01/2010,126
4882168,27/01/2010,130
4882168,26/01/2010,124
4882168,25/01/2010,125
4882168,24/01/2010,126
4882168,23/01/2010,127
4882168,22/01/2010,127
4882168,21/01/2010,129
4882168,20/01/2010,131
4882168,19/01/2010,131
4882168,18/01/2010,125
4882168,17/01/2010,124
4882168,16/01/2010,124
4882168,15/01/2010,125
4882168,14/01/2010,126
4882168,13/01/2010,126
4882168,12/01/2010,127
4882168,11/01/2010,127
4882168,10/01/2010,128
4882168,09/01/2010,128
4882168,08/01/2010,131
4882168,07/01/2010,135
4882168,06/01/2010,136
4882168,05/01/2010,132
4882168,04/01/2010,133
4882168,03/01/2010,134
4882168,02/01/2010,135
4882168,01/01/2010,137
4882168,31/12/2009,143
4882168,30/12/2009,131
4882168,29/12/2009,127
4882168,28/12/2009,128
4882168,27/12/2009,129
4882168,26/12/2009,133
4882168,25/12/2009,132
4882168,24/12/2009,128
4882168,23/12/2009,129
4882168,22/12/2009,131
4882168,21/12/2009,135
4882168,20/12/2009,145
4882168,19/12/2009,139
4882168,18/12/2009,135
4882168,17/12/2009,137
4882168,16/12/2009,140
4882168,15/12/2009,144
4882168,14/12/2009,149
4882168,13/12/2009,155
4882168,12/12/2009,164
4882168,11/12/2009,172
4882168,10/12/2009,152
4882168,09/12/2009,146
4882168,08/12/2009,145
4882168,07/12/2009,147
4882168,06/12/2009,140
4882168,05/12/2009,133
4882168,04/12/2009,134
4882168,03/12/2009,134
4882168,02/12/2009,137
4882168,01/12/2009,139
4882168,30/11/2009,140
4882168,29/11/2009,145
4882168,28/11/2009,141
4882168,27/11/2009,142
4882168,26/11/2009,143
4882168,25/11/2009,147
4882168,24/11/2009,148
4882168,23/11/2009,132
4882168,22/11/2009,127
4882168,21/11/2009,128
4882168,20/11/2009,129
4882168,19/11/2009,130
4882168,18/11/2009,132
4882168,17/11/2009,132
4882168,16/11/2009,130
4882168,15/11/2009,132
4882168,14/11/2009,133
4882168,13/11/2009,134
4882168,12/11/2009,134
4882168,11/11/2009,135
4882168,10/11/2009,136
4882168,09/11/2009,136
4882168,08/11/2009,139
4882168,07/11/2009,142
4882168,06/11/2009,146
4882168,05/11/2009,151
4882168,04/11/2009,146
4882168,03/11/2009,143
4882168,02/11/2009,138
4882168,01/11/2009,126
4882168,31/10/2009,127
4882168,30/10/2009,128
4882168,29/10/2009,130
4882168,28/10/2009,134
4882168,27/10/2009,138
4882168,26/10/2009,134
4882168,25/10/2009,136
4882168,24/10/2009,135
4882168,23/10/2009,135
4882168,22/10/2009,137
4882168,21/10/2009,138
4882168,20/10/2009,144
4882168,19/10/2009,149
4882168,18/10/2009,158
4882168,17/10/2009,161
4882168,16/10/2009,137
4882168,15/10/2009,132
4882168,14/10/2009,136
4882168,13/10/2009,143
4882168,12/10/2009,152
4882168,11/10/2009,133
4882168,10/10/2009,125
4882168,09/10/2009,128
4882168,08/10/2009,133
4882168,07/10/2009,139
4882168,06/10/2009,105
4882168,05/10/2009,100
4882168,04/10/2009,100
4882168,03/10/2009,100
4882168,02/10/2009,100
4882168,01/10/2009,100
4882168,30/09/2009,100
4882168,29/09/2009,100
4882168,28/09/2009,100
4882168,27/09/2009,100
4882168,26/09/2009,100
4882168,25/09/2009,100
4882168,24/09/2009,100
4882168,23/09/2009,101
4882168,22/09/2009,101
4882168,21/09/2009,101
4882168,20/09/2009,101
4882168,19/09/2009,101
4882168,18/09/2009,102
4882168,17/09/2009,102
4882168,16/09/2009,107
4882168,15/09/2009,109
4882168,14/09/2009,101
4882168,13/09/2009,101
4882168,12/09/2009,100
4882168,11/09/2009,100
4882168,10/09/2009,100
4882168,09/09/2009,100
4882168,08/09/2009,100
4882168,07/09/2009,100
4882168,06/09/2009,101
4882168,05/09/2009,100
4882168,04/09/2009,100
4882168,03/09/2009,100
4882168,02/09/2009,100
4882168,01/09/2009,100
4882168,31/08/2009,100
4882168,30/08/2009,100
4882168,29/08/2009,100
4882168,28/08/2009,100
4882168,27/08/2009,100
4882168,26/08/2009,101
4882168,25/08/2009,100
4882168,24/08/2009,101
4882168,23/08/2009,101
4882168,22/08/2009,101
4882168,21/08/2009,101
4882168,20/08/2009,100
4882168,19/08/2009,101
4882168,18/08/2009,101
4882168,17/08/2009,101
4882168,16/08/2009,102
4882168,15/08/2009,103
4882168,14/08/2009,103
4882168,13/08/2009,107
4882168,12/08/2009,105
4882168,11/08/2009,103
4882168,10/08/2009,103
4882168,09/08/2009,105
4882168,08/08/2009,103
4882168,07/08/2009,104
4882168,06/08/2009,106
4882168,05/08/2009,110
4882168,04/08/2009,117
4882168,03/08/2009,126
4882168,02/08/2009,111
4882168,01/08/2009,113
4882168,31/07/2009,116
4882168,30/07/2009,119
4882168,29/07/2009,122
4882168,28/07/2009,125
4882168,27/07/2009,130
4882168,26/07/2009,138
4882168,25/07/2009,138
4882168,24/07/2009,128
4882168,23/07/2009,126
4882168,22/07/2009,131
4882168,21/07/2009,112
4882168,20/07/2009,118
4882168,19/07/2009,109
4882168,18/07/2009,110
4882168,17/07/2009,103
4882168,16/07/2009,107
4882168,15/07/2009,114
4882168,14/07/2009,120
4882168,13/07/2009,126
4882168,12/07/2009,131
4882168,11/07/2009,137
4882168,10/07/2009,108
4882168,09/07/2009,108
4882168,08/07/2009,101
4882168,07/07/2009,101
4882168,06/07/2009,100
4882168,05/07/2009,100
4882168,04/07/2009,100
4882168,03/07/2009,100
4882168,02/07/2009,100
4882168,01/07/2009,100
4882168,30/06/2009,100
4882168,29/06/2009,100
4882168,28/06/2009,100
4882168,27/06/2009,101
4882168,26/06/2009,101
4882168,25/06/2009,101
4882168,24/06/2009,100
4882168,23/06/2009,101
4882168,22/06/2009,101
4882168,21/06/2009,102
4882168,20/06/2009,102
4882168,19/06/2009,103
4882168,18/06/2009,105
4882168,17/06/2009,113
4882168,16/06/2009,118
4882168,15/06/2009,103
4882168,14/06/2009,107
4882168,13/06/2009,116
4882168,12/06/2009,118
4882168,11/06/2009,102
4882168,10/06/2009,101
4882168,09/06/2009,101
4882168,08/06/2009,101
4882168,07/06/2009,102
4882168,06/06/2009,102
4882168,05/06/2009,102
4882168,04/06/2009,102
4882168,03/06/2009,102
4882168,02/06/2009,103
4882168,01/06/2009,105
4882168,31/05/2009,108
4882168,30/05/2009,103
4882168,29/05/2009,106
4882168,28/05/2009,105
4882168,27/05/2009,107
4882168,26/05/2009,109
4882168,25/05/2009,112
4882168,24/05/2009,116
4882168,23/05/2009,120
4882168,22/05/2009,124
4882168,21/05/2009,119
4882168,20/05/2009,118
4882168,19/05/2009,120
4882168,18/05/2009,124
4882168,17/05/2009,127
4882168,16/05/2009,135
4882168,15/05/2009,120
4882168,14/05/2009,120
4882168,13/05/2009,123
4882168,12/05/2009,124
4882168,11/05/2009,126
4882168,10/05/2009,133
4882168,09/05/2009,126
4882168,08/05/2009,127
4882168,07/05/2009,136
4882168,06/05/2009,130
4882168,05/05/2009,105
4882168,04/05/2009,107
4882168,03/05/2009,105
4882168,02/05/2009,107
4882168,01/05/2009,110
4882168,30/04/2009,113
4882168,29/04/2009,117
4882168,28/04/2009,114
4882168,27/04/2009,115
4882168,26/04/2009,117
4882168,25/04/2009,119
4882168,24/04/2009,122
4882168,23/04/2009,124
4882168,22/04/2009,122
4882168,21/04/2009,123
4882168,20/04/2009,124
4882168,19/04/2009,127
4882168,18/04/2009,129
4882168,17/04/2009,130
4882168,16/04/2009,130
4882168,15/04/2009,132
4882168,14/04/2009,134
4882168,13/04/2009,137
4882168,12/04/2009,142
4882168,11/04/2009,145
4882168,10/04/2009,145
4882168,09/04/2009,147
4882168,08/04/2009,149
4882168,07/04/2009,152
4882168,06/04/2009,150
4882168,05/04/2009,154
4882168,04/04/2009,156
4882168,03/04/2009,156
4882168,02/04/2009,151
4882168,01/04/2009,148
4882168,31/03/2009,150
4882168,30/03/2009,154
4882168,29/03/2009,158
4882168,28/03/2009,159
4882168,27/03/2009,158
4882168,26/03/2009,146
4882168,25/03/2009,147
4882168,24/03/2009,153
4882168,23/03/2009,145
4882168,22/03/2009,141
4882168,21/03/2009,144
4882168,20/03/2009,148
4882168,19/03/2009,153
4882168,18/03/2009,160
4882168,17/03/2009,167
4882168,16/03/2009,177
4882168,15/03/2009,172
4882168,14/03/2009,163
4882168,13/03/2009,167
4882168,12/03/2009,155
4882168,11/03/2009,153
4882168,10/03/2009,150
4882168,09/03/2009,149
4882168,08/03/2009,149
4882168,07/03/2009,152
4882168,06/03/2009,153
4882168,05/03/2009,155
4882168,04/03/2009,162
4882168,03/03/2009,171
4882168,02/03/2009,176
4882168,01/03/2009,184
4882168,28/02/2009,187
4882168,27/02/2009,162
4882168,26/02/2009,144
4882168,25/02/2009,143
4882168,24/02/2009,146
4882168,23/02/2009,145
4882168,22/02/2009,130
4882168,21/02/2009,127
4882168,20/02/2009,128
4882168,19/02/2009,128
4882168,18/02/2009,128
4882168,17/02/2009,131
4882168,16/02/2009,129
4882168,15/02/2009,129
4882168,14/02/2009,131
4882168,13/02/2009,132
4882168,12/02/2009,134
4882168,11/02/2009,137
4882168,10/02/2009,129
4882168,09/02/2009,122
4882168,08/02/2009,124
4882168,07/02/2009,122
4882168,06/02/2009,121
4882168,05/02/2009,121
4882168,04/02/2009,120
4882168,03/02/2009,121
4882168,02/02/2009,121
4882168,01/02/2009,122
4882168,31/01/2009,123
4882168,30/01/2009,122
4882168,29/01/2009,123
4882168,28/01/2009,125
4882168,27/01/2009,126
4882168,26/01/2009,127
4882168,25/01/2009,129
4882168,24/01/2009,133
4882168,23/01/2009,123
4882168,22/01/2009,121
4882168,21/01/2009,123
4882168,20/01/2009,124
4882168,19/01/2009,120
4882168,18/01/2009,122
4882168,17/01/2009,124
4882168,16/01/2009,124
4882168,15/01/2009,124
4882168,14/01/2009,124
4882168,13/01/2009,124
4882168,12/01/2009,124
4882168,11/01/2009,124
4882168,10/01/2009,124
4882168,09/01/2009,125
4882168,08/01/2009,135
4882168,07/01/2009,133
4882168,06/01/2009,130
4882168,05/01/2009,129
4882168,04/01/2009,134
4882168,03/01/2009,135
4882168,02/01/2009,131
4882168,01/01/2009,135
4882168,31/12/2008,137
4882168,30/12/2008,136
4882168,29/12/2008,138
4882168,28/12/2008,142
4882168,27/12/2008,145
4882168,26/12/2008,149
4882168,25/12/2008,156
4882168,24/12/2008,155
4882168,23/12/2008,156
4882168,22/12/2008,154
4882168,21/12/2008,136
4882168,20/12/2008,131
4882168,19/12/2008,127
4882168,18/12/2008,127
4882168,17/12/2008,128
4882168,16/12/2008,129
4882168,15/12/2008,130
4882168,14/12/2008,132
4882168,13/12/2008,134
4882168,12/12/2008,136
4882168,11/12/2008,139
4882168,10/12/2008,141
4882168,09/12/2008,144
4882168,08/12/2008,146
4882168,07/12/2008,146
4882168,06/12/2008,144
4882168,05/12/2008,135
4882168,04/12/2008,130
4882168,03/12/2008,130
4882168,02/12/2008,131
4882168,01/12/2008,131
4882168,30/11/2008,132
4882168,29/11/2008,133
4882168,28/11/2008,134
4882168,27/11/2008,133
4882168,26/11/2008,131
4882168,25/11/2008,133
4882168,24/11/2008,136
4882168,23/11/2008,138
4882168,22/11/2008,143
4882168,21/11/2008,149
4882168,20/11/2008,138
4882168,19/11/2008,122
4882168,18/11/2008,116
4882168,17/11/2008,120
4882168,16/11/2008,116
4882168,15/11/2008,108
4882168,14/11/2008,109
4882168,13/11/2008,112
4882168,12/11/2008,113
4882168,11/11/2008,111
4882168,10/11/2008,110
4882168,09/11/2008,110
4882168,08/11/2008,110
4882168,07/11/2008,111
4882168,06/11/2008,113
4882168,05/11/2008,115
4882168,04/11/2008,118
4882168,03/11/2008,121
4882168,02/11/2008,125
4882168,01/11/2008,121
4882168,31/10/2008,122
4882168,30/10/2008,123
4882168,29/10/2008,124
4882168,28/10/2008,131
4882168,27/10/2008,123
4882168,26/10/2008,106
4882168,25/10/2008,108
4882168,24/10/2008,109
4882168,23/10/2008,111
4882168,22/10/2008,112
4882168,21/10/2008,110
4882168,20/10/2008,111
4882168,19/10/2008,113
4882168,18/10/2008,118
4882168,17/10/2008,123
4882168,16/10/2008,112
4882168,15/10/2008,105
4882168,14/10/2008,109
4882168,13/10/2008,107
4882168,12/10/2008,108
4882168,11/10/2008,111
4882168,10/10/2008,113
4882168,09/10/2008,117
4882168,08/10/2008,121
4882168,07/10/2008,125
4882168,06/10/2008,130
4882168,05/10/2008,114
4882168,04/10/2008,119
4882168,03/10/2008,124
4882168,02/10/2008,135
4882168,01/10/2008,135
4882168,30/09/2008,100
4882168,29/09/2008,100
4882168,28/09/2008,100
4882168,27/09/2008,101
4882168,26/09/2008,101
4882168,25/09/2008,103
4882168,24/09/2008,117
4882168,23/09/2008,100
4882168,22/09/2008,99
4882168,21/09/2008,99
4882168,20/09/2008,99
4882168,19/09/2008,99
4882168,18/09/2008,99
4882168,17/09/2008,99
4882168,16/09/2008,99
4882168,15/09/2008,99
4882168,14/09/2008,99
4882168,13/09/2008,99
4882168,12/09/2008,99
4882168,11/09/2008,99
4882168,10/09/2008,99
4882168,09/09/2008,99
4882168,08/09/2008,99
4882168,07/09/2008,100
4882168,06/09/2008,100
4882168,05/09/2008,100
4882168,04/09/2008,100
4882168,03/09/2008,100
4882168,02/09/2008,100
4882168,01/09/2008,100
4882168,31/08/2008,100
4882168,30/08/2008,100
4882168,29/08/2008,101
4882168,28/08/2008,101
4882168,27/08/2008,101
4882168,26/08/2008,102
4882168,25/08/2008,111
4882168,24/08/2008,118
4882168,23/08/2008,100
4882168,22/08/2008,100
4882168,21/08/2008,100
4882168,20/08/2008,99
4882168,19/08/2008,99
4882168,18/08/2008,100
4882168,17/08/2008,100
4882168,16/08/2008,100
4882168,15/08/2008,100
4882168,14/08/2008,100
4882168,13/08/2008,100
4882168,12/08/2008,101
4882168,11/08/2008,100
4882168,10/08/2008,100
4882168,09/08/2008,101
4882168,08/08/2008,101
4882168,07/08/2008,100
4882168,06/08/2008,101
4882168,05/08/2008,101
4882168,04/08/2008,101
4882168,03/08/2008,102
4882168,02/08/2008,106
4882168,01/08/2008,101
4882168,31/07/2008,101
4882168,30/07/2008,102
4882168,29/07/2008,102
4882168,28/07/2008,105
4882168,27/07/2008,111
4882168,26/07/2008,117
4882168,25/07/2008,122
4882168,24/07/2008,127
4882168,23/07/2008,136
4882168,22/07/2008,157
4882168,21/07/2008,127
4882168,20/07/2008,134
4882168,19/07/2008,106
4882168,18/07/2008,100
4882168,17/07/2008,100
4882168,16/07/2008,101
4882168,15/07/2008,100
4882168,14/07/2008,100
4882168,13/07/2008,100
4882168,12/07/2008,100
4882168,11/07/2008,100
4882168,10/07/2008,101
4882168,09/07/2008,100
4882168,08/07/2008,100
4882168,07/07/2008,100
4882168,06/07/2008,101
4882168,05/07/2008,101
4882168,04/07/2008,102
4882168,03/07/2008,103
4882168,02/07/2008,100
4882168,01/07/2008,100
4882168,30/06/2008,101
4882168,29/06/2008,101
4882168,28/06/2008,101
4882168,27/06/2008,101
4882168,26/06/2008,106
4882168,25/06/2008,108
4882168,24/06/2008,102
4882168,23/06/2008,102
4882168,22/06/2008,101
4882168,21/06/2008,102
4882168,20/06/2008,102
4882168,19/06/2008,102
4882168,18/06/2008,102
4882168,17/06/2008,102
4882168,16/06/2008,103
4882168,15/06/2008,103
4882168,14/06/2008,102
4882168,13/06/2008,103
4882168,12/06/2008,101
4882168,11/06/2008,101
4882168,10/06/2008,101
4882168,09/06/2008,101
4882168,08/06/2008,102
4882168,07/06/2008,102
4882168,06/06/2008,103
4882168,05/06/2008,105
4882168,04/06/2008,117
4882168,03/06/2008,108
4882168,02/06/2008,101
4882168,01/06/2008,102
4882168,31/05/2008,102
4882168,30/05/2008,102
4882168,29/05/2008,102
4882168,28/05/2008,103
4882168,27/05/2008,103
4882168,26/05/2008,103
4882168,25/05/2008,103
4882168,24/05/2008,104
4882168,23/05/2008,104
4882168,22/05/2008,104
4882168,21/05/2008,106
4882168,20/05/2008,109
4882168,19/05/2008,112
4882168,18/05/2008,114
4882168,17/05/2008,115
4882168,16/05/2008,114
4882168,15/05/2008,112
4882168,14/05/2008,112
4882168,13/05/2008,114
4882168,12/05/2008,117
4882168,11/05/2008,118
4882168,10/05/2008,120
4882168,09/05/2008,121
4882168,08/05/2008,122
4882168,07/05/2008,124
4882168,06/05/2008,125
4882168,05/05/2008,126
4882168,04/05/2008,127
4882168,03/05/2008,128
4882168,02/05/2008,130
4882168,01/05/2008,131
4882168,30/04/2008,133
4882168,29/04/2008,139
4882168,28/04/2008,128
4882168,27/04/2008,127
4882168,26/04/2008,129
4882168,25/04/2008,130
4882168,24/04/2008,129
4882168,23/04/2008,131
4882168,22/04/2008,134
4882168,21/04/2008,135
4882168,20/04/2008,136
4882168,19/04/2008,138
4882168,18/04/2008,139
4882168,17/04/2008,140
4882168,16/04/2008,142
4882168,15/04/2008,148
4882168,14/04/2008,150
4882168,13/04/2008,143
4882168,12/04/2008,144
4882168,11/04/2008,144
4882168,10/04/2008,147
4882168,09/04/2008,151
4882168,08/04/2008,155
4882168,07/04/2008,162
4882168,06/04/2008,169
4882168,05/04/2008,169
4882168,04/04/2008,170
4882168,03/04/2008,175
4882168,02/04/2008,168
4882168,01/04/2008,159
4882168,31/03/2008,155
4882168,30/03/2008,145
4882168,29/03/2008,140
4882168,28/03/2008,135
4882168,27/03/2008,134
4882168,26/03/2008,136
4882168,25/03/2008,137
4882168,24/03/2008,139
4882168,23/03/2008,141
4882168,22/03/2008,144
4882168,21/03/2008,145
4882168,20/03/2008,143
4882168,19/03/2008,145
4882168,18/03/2008,147
4882168,17/03/2008,150
4882168,16/03/2008,146
4882168,15/03/2008,141
4882168,14/03/2008,140
4882168,13/03/2008,140
4882168,12/03/2008,141
4882168,11/03/2008,130
4882168,10/03/2008,132
4882168,09/03/2008,134
4882168,08/03/2008,135
4882168,07/03/2008,136
4882168,06/03/2008,138
4882168,05/03/2008,140
4882168,04/03/2008,144
4882168,03/03/2008,149
4882168,02/03/2008,155
4882168,01/03/2008,146
4882168,29/02/2008,123
4882168,28/02/2008,124
4882168,27/02/2008,125
4882168,26/02/2008,125
4882168,25/02/2008,125
4882168,24/02/2008,126
4882168,23/02/2008,127
4882168,22/02/2008,125
4882168,21/02/2008,125
4882168,20/02/2008,126
4882168,19/02/2008,127
4882168,18/02/2008,128
4882168,17/02/2008,128
4882168,16/02/2008,130
4882168,15/02/2008,132
4882168,14/02/2008,134
4882168,13/02/2008,135
4882168,12/02/2008,137
4882168,11/02/2008,139
4882168,10/02/2008,142
4882168,09/02/2008,144
4882168,08/02/2008,146
4882168,07/02/2008,152
4882168,06/02/2008,146
4882168,05/02/2008,137
4882168,04/02/2008,139
4882168,03/02/2008,141
4882168,02/02/2008,145
4882168,01/02/2008,149
4882168,31/01/2008,155
4882168,30/01/2008,163
4882168,29/01/2008,176
4882168,28/01/2008,198
4882168,27/01/2008,185
4882168,26/01/2008,151
4882168,25/01/2008,158
4882168,24/01/2008,166
4882168,23/01/2008,181
4882168,22/01/2008,218
4882168,21/01/2008,241
4882168,20/01/2008,227
4882168,19/01/2008,189
4882168,18/01/2008,138
4882168,17/01/2008,134
4882168,16/01/2008,131
4882168,15/01/2008,131
4882168,14/01/2008,131
4882168,13/01/2008,133
4882168,12/01/2008,135
4882168,11/01/2008,131
4882168,10/01/2008,129
4882168,09/01/2008,129
4882168,08/01/2008,130
4882168,07/01/2008,128
4882168,06/01/2008,128
4882168,05/01/2008,121
4882168,04/01/2008,122
4882168,03/01/2008,123
4882168,02/01/2008,124
4882168,01/01/2008,125
